"apgcode","occurrences"
"xs10_g8o652z01","10135930944"
"xs10_35ako","2779875727"
"xs10_32qr","786406319"
"xs10_178kk8","475562992"
"xs10_69ar","389223594"
"xs10_358gkc","204457356"
"xs10_g0s252z11","167951041"
"xs10_0drz32","151870173"
"xs10_3215ac","117687502"
"xs10_3542ac","90596044"
"xs10_1784ko","67716860"
"xs10_ggka52z1","45481248"
"xs10_g8ka52z01","32971380"
"xs10_0cp3z32","15744637"
"xs10_0j96z32","15580037"
"xs10_4al96","14462065"
"xs10_178ka4","12699528"
"xs10_31eg8o","8336302"
"xs10_xg853z321","5965721"
"xs10_drz32","3524600"
"xs10_ggka23z1","1512364"
"xs10_25a8426","1366062"
"xs10_2eg853","842876"
"xs10_1784213","603207"
"xs10_wg853z65","98673"
