"apgcode","occurrences"
"xs12_g8o653z11","689770979673"
"xs12_raar","1758789404"
"xs12_330f96","213325769"
"xs12_330fho","186213188"
"xs12_178c453","136870876"
"xs12_178br","136698925"
"xs12_3hu066","127867311"
"xs12_256o8a6","53071032"
"xs12_2egm93","50759840"
"xs12_6960ui","50195840"
"xs12_o4q552z01","42047701"
"xs12_2egm96","40175951"
"xs12_0ggm96z32","33991608"
"xs12_0g8o652z121","21556122"
"xs12_69iczx113","19912818"
"xs12_g4q453z11","18715204"
"xs12_3123cko","12162644"
"xs12_31egma","11385430"
"xs12_651i4ozx11","9399719"
"xs12_0g8ka52z121","8393150"
"xs12_0ggm93z32","8027663"
"xs12_0g8o652z23","7909897"
"xs12_3560ui","4389169"
"xs12_6530f9","4264183"
"xs12_0ggs252z32","4199738"
"xs12_178kia4","3051485"
"xs12_32qj4c","1936691"
"xs12_3542ako","1794240"
"xs12_5b8ozx123","1606705"
"xs12_g8ka53z11","1490498"
"xs12_354qic","1252798"
"xs12_0g0s256z121","1123843"
"xs12_252sga6","1102288"
"xs12_08o653z32","1057481"
"xs12_0gbaa4z121","1039996"
"xs12_3215ako","1029442"
"xs12_31eozx123","1022908"
"xs12_0ggka52z32","928436"
"xs12_0g8ka52z23","699454"
"xs12_358m93","639311"
"xs12_178c2ko","623724"
"xs12_4ai3s4zx1","605009"
"xs12_35icz65","564687"
"xs12_178ka52","550629"
"xs12_0g0s252z321","524729"
"xs12_0g8ge13z23","522937"
"xs12_g4q552z11","517473"
"xs12_35iczx113","504725"
"xs12_641j4czx11","430612"
"xs12_drz346","425675"
"xs12_4s0c93z11","404143"
"xs12_642tic","338546"
"xs12_0gila4z32","293566"
"xs12_354cga6","252178"
"xs12_3lozx352","235502"
"xs12_69jzx1246","206204"
"xs12_g88a53z23","204470"
"xs12_03loz643","196277"
"xs12_32qb8o","192925"
"xs12_31eg8426","174441"
"xs12_3pczw1246","158543"
"xs12_358mic","152192"
"xs12_32qczx113","150361"
"xs12_39c0f9","147982"
"xs12_358gka6","139966"
"xs12_2ege123","135867"
"xs12_628c0f9","115992"
"xs12_3pcz643","112023"
"xs12_25a8og8o","105462"
"xs12_25a8og4c","84076"
"xs12_69jzx1ac","82684"
"xs12_0j96z346","70790"
"xs12_31460ui","62139"
"xs12_8ljgzx252","60567"
"xs12_0g8ka23z23","51692"
"xs12_4alla4","50899"
"xs12_312312ko","50733"
"xs12_0cq23z65","50483"
"xs12_17842156","50085"
"xs12_32akg84c","47587"
"xs12_178ka23","44298"
"xs12_g88b52z23","42100"
"xs12_32130f9","36170"
"xs12_0g8k871z23","36113"
"xs12_4ai3zx1246","35743"
"xs12_178k871","32293"
"xs12_31eg853","29671"
"xs12_321e853","27363"
"xs12_kc3213z11","27093"
"xs12_4ap3z65","25016"
"xs12_025iczca1","24740"
"xs12_ck3123z11","23750"
"xs12_ci52zw1246","22686"
"xs12_25iczw1252","22644"
"xs12_5b8og4c","19446"
"xs12_g853zdb","18937"
"xs12_25a842ac","15444"
"xs12_31230f9","14922"
"xs12_25akg84c","13169"
"xs12_08o6413z32","12637"
"xs12_17842ak8","12561"
"xs12_drz1226","10963"
"xs12_32132qk","10691"
"xs12_xg84213zca1","9521"
"xs12_1784c826","8570"
"xs12_3pczw1ac","7938"
"xs12_35861ac","7534"
"xs12_8o6413z32","6849"
"xs12_ghn84cz1","6322"
"xs12_358m96","5997"
"xs12_0ol3zca1","5747"
"xs12_0gjl8z56","5517"
"xs12_ck3146z11","5110"
"xs12_321f84c","3230"
"xs12_178421e8","2593"
"xs12_3123c4go","2484"
"xs12_4ai3zx1ac","1972"
"xs12_ggdbz65","1848"
"xs12_g8jdz56","1234"
"xs12_0ggc93z641","672"
"xs12_358gzy012ko","618"
