"apgcode","occurrences"
"xs13_g88m96z121","112332476"
"xs13_4a960ui","70860125"
"xs13_69e0mq","56429799"
"xs13_0g8o653z121","41780838"
"xs13_2530f96","40327147"
"xs13_321fgkc","26074025"
"xs13_31egma4","19415946"
"xs13_32qb96","17902371"
"xs13_g8ge96z121","17080662"
"xs13_354djo","15470972"
"xs13_31ege13","12172719"
"xs13_354mp3","11168066"
"xs13_08ka96z321","10225621"
"xs13_djozx352","9644584"
"xs13_0ggm952z32","8357589"
"xs13_255q8a6","8004236"
"xs13_3hu06a4","7620174"
"xs13_4aarzx123","6789482"
"xs13_2530fho","6527346"
"xs13_25960ui","6185626"
"xs13_2560uic","5535419"
"xs13_17871ac","4851024"
"xs13_31kmiczw1","4291971"
"xs13_0gbaicz121","3886127"
"xs13_0mk453z121","3863951"
"xs13_2eg6p3zx1","3750221"
"xs13_356o8a6","3286669"
"xs13_08u156z32","3061069"
"xs13_08o696z321","3056161"
"xs13_0ggs253z32","3018375"
"xs13_c88a52z33","2917036"
"xs13_0gil96z32","2686807"
"xs13_6970bd","2654079"
"xs13_2560uh3","2500657"
"xs13_0g8o652z321","2120850"
"xs13_3123qic","1949574"
"xs13_259mge2","1699618"
"xs13_354264ko","1410391"
"xs13_0ggka53z32","1312552"
"xs13_32qj96","1193548"
"xs13_g8ka23z56","1157412"
"xs13_39e0mq","1155685"
"xs13_32qkzx346","1072829"
"xs13_25ac0f9","935003"
"xs13_wggm93z252","922894"
"xs13_wggm96z252","915849"
"xs13_08ob96z32","913184"
"xs13_g6q453z11","909370"
"xs13_0g8ka53z23","766563"
"xs13_0g8o653z23","765433"
"xs13_178n96","704786"
"xs13_2ege1e8","691464"
"xs13_0gbb8oz121","651392"
"xs13_0gbaa4z321","593806"
"xs13_035iczca1","592540"
"xs13_2lmge2z01","469382"
"xs13_g0s2pmz11","450213"
"xs13_0gbq23z121","438290"
"xs13_39e0db","377257"
"xs13_3146178c","371566"
"xs13_3pczw1156","327224"
"xs13_0g8ka52z321","323821"
"xs13_358go8a6","303279"
"xs13_32arzx123","298892"
"xs13_0gbaa4z123","265128"
"xs13_178c0f9","252432"
"xs13_0ggs256z32","247562"
"xs13_354c0f9","243431"
"xs13_c9jzbd","227619"
"xs13_25a8oge2","218648"
"xs13_32hu0oo","213256"
"xs13_32hu066","200408"
"xs13_651i4ozw121","193815"
"xs13_352sga6","165873"
"xs13_31eg84ko","148771"
"xs13_wg8o652z65","141242"
"xs13_0g0s256z321","139532"
"xs13_31e86246","120732"
"xs13_oe1246z23","120542"
"xs13_0ggm96z56","119765"
"xs13_31eozx1252","113100"
"xs13_g842156z123","111354"
"xs13_178ka53","108725"
"xs13_0gba96z121","108254"
"xs13_32132ako","106720"
"xs13_256o8gkc","105619"
"xs13_g8ka52z56","101768"
"xs13_3lozx356","100308"
"xs13_0gjla4z32","99208"
"xs13_8ljgzx346","89332"
"xs13_ci52z39c","89117"
"xs13_25b8og8o","86761"
"xs13_6246pic","80155"
"xs13_0g0s253z321","77819"
"xs13_o4pb8oz01","75574"
"xs13_ghn871z1","66704"
"xs13_256o8a52","65399"
"xs13_25akg853","63621"
"xs13_j5c48cz11","59491"
"xs13_0o4871z643","53551"
"xs13_32ac0f9","48110"
"xs13_17842ako","46635"
"xs13_178c48a6","43574"
"xs13_0g6p56z121","43408"
"xs13_178f123","42644"
"xs13_354215ac","42256"
"xs13_0o4a52z643","39989"
"xs13_08k8a52z321","36559"
"xs13_32qczx1246","35891"
"xs13_32qbzx113","35255"
"xs13_652sga6","33136"
"xs13_bdggkczw1","32217"
"xs13_69jwo8zx121","31041"
"xs13_25iczw1256","30564"
"xs13_0gbq23z23","28458"
"xs13_wggs252z252","27751"
"xs13_31231ego","27619"
"xs13_32arz065","25828"
"xs13_wggka52z252","23988"
"xs13_jhe8z65","23982"
"xs13_35a8og4c","23658"
"xs13_641vg4c","23210"
"xs13_8ljgzx256","21895"
"xs13_6248n96","19653"
"xs13_c9jz39c","19248"
"xs13_w8o652zca1","19088"
"xs13_39cggkczx1","18925"
"xs13_ggca52z65","17886"
"xs13_25iczx1156","17610"
"xs13_j96zdb","16142"
"xs13_25b8og4c","15336"
"xs13_321egma","15184"
"xs13_2ege1246","14500"
"xs13_c9jzw1156","13898"
"xs13_32akg853","13569"
"xs13_0ggca52z641","12597"
"xs13_0g4q552z121","11903"
"xs13_6421eozx32","11246"
"xs13_3pa4zw1246","11075"
"xs13_dj8gzx346","11021"
"xs13_0cp3z69c","10907"
"xs13_69jzx1248c","10780"
"xs13_256o8ge2","10642"
"xs13_31248gzy212ko","10417"
"xs13_31eozca1","10327"
"xs13_32hjkczw1","10230"
"xs13_0g88b52z123","9965"
"xs13_ci52zbd","9680"
"xs13_178kq23","9522"
"xs13_4ap3zw1252","9516"
"xs13_dbgzbd","9299"
"xs13_35426853","9268"
"xs13_0ggm93z56","8920"
"xs13_358mp3","8468"
"xs13_wgila4z252","8309"
"xs13_0ggka52z56","8162"
"xs13_0j9ak8z121","7915"
"xs13_0ggo8b5z32","7725"
"xs13_0g8kq23z23","7643"
"xs13_3lozc96","7194"
"xs13_3146pic","6875"
"xs13_69jzwc96","6864"
"xs13_256o8b5","6826"
"xs13_0ok213zca1","6524"
"xs13_3lo0ui","6343"
"xs13_3146o8a6","6230"
"xs13_ci53zw1246","5514"
"xs13_03ia4z69c","5242"
"xs13_25a88gzwca1","5109"
"xs13_2ego8b5","5021"
"xs13_0354k8z6421","4963"
"xs13_32qczx1ac","4384"
"xs13_dbgzw1156","4357"
"xs13_178ka246","4264"
"xs13_0bq23z65","4181"
"xs13_ghn8426z1","3846"
"xs13_3ia4zc93","3743"
"xs13_0g8gka52z23","3540"
"xs13_259m853","3362"
"xs13_g8k871z56","3296"
"xs13_2eg8jdzx1","3295"
"xs13_1no3146","3134"
"xs13_3ia4zw1156","3076"
"xs13_358e1246","2985"
"xs13_0kc0f9z32","2984"
"xs13_6413kczx32","2967"
"xs13_0gila4z56","2704"
"xs13_1784c871","2423"
"xs13_4ai3zx1248c","2391"
"xs13_35akg84c","2332"
"xs13_25a8og84c","2229"
"xs13_0ggs252z56","2202"
"xs13_25akg8426","2173"
"xs13_0g8o6413z23","2130"
"xs13_ci52zw1248c","2085"
"xs13_8ljgzx652","1853"
"xs13_wggka23z252","1803"
"xs13_ggc871z65","1703"
"xs13_321eg853","1632"
"xs13_ggca23z65","1556"
"xs13_03hik8z252","1438"
"xs13_o861acz23","1408"
"xs13_g84213zdb","1380"
"xs13_ca168ozx32","1374"
"xs13_3pczw1248c","1357"
"xs13_0ggc871z641","1258"
"xs13_j5c4goz11","1256"
"xs13_1no3123","1248"
"xs13_25icz69c","1191"
"xs13_04ap3zca1","1176"
"xs13_31248ge13","1116"
"xs13_69jzx12ko","1007"
"xs13_gjloz56","920"
"xs13_4ai30o8zx121","888"
"xs13_0drz254c","841"
"xs13_4ap3zw1213","726"
"xs13_1784cga6","498"
"xs13_1784215a4","391"
"xs13_32akg8426","391"
"xs13_0g8gka23z23","378"
"xs13_kq23z1ac","353"
"xs13_358gzxo9a4","289"
"xs13_0g853zrm","273"
"xs13_0g853zol3","268"
"xs13_5b8og84c","249"
"xs13_321eg8426","228"
"xs13_3lozx3123","192"
"xs13_358gzx6jo","184"
"xs13_358gzw8k96","178"
"xs13_0ggka23z56","152"
"xs13_ol3zw3213","140"
"xs13_0j5ozbc1","137"
"xs13_25a842ak8","135"
"xs13_3lozx3146","106"
"xs13_3lozxbd","97"
"xs13_2eg8421e8","79"
"xs13_31248gzy21248c","48"
"xs13_3lozx39c","45"
"xs13_0gjl8z1ac","26"
"xs13_5b8ozx1213","17"
