"apgcode","occurrences"
"xs14_g88m952z121","233602075040"
"xs14_69bqic","19149885235"
"xs14_g88b96z123","9055754566"
"xs14_6970796","1075988468"
"xs14_j1u066z11","715416580"
"xs14_69bo8a6","377666024"
"xs14_39e0e93","308487631"
"xs14_6is079c","245250914"
"xs14_69e0eic","198439406"
"xs14_39e0eic","140413132"
"xs14_39e0e96","90041949"
"xs14_g8o0e96z121","63048332"
"xs14_6960uic","42134997"
"xs14_69la4ozx11","24482633"
"xs14_4a9m88gzx121","19111811"
"xs14_g8o69a4z121","18798987"
"xs14_j1u413z11","14440587"
"xs14_g4s079cz11","14392408"
"xs14_3hu0696","13777881"
"xs14_g8id96z121","12995836"
"xs14_31egm96","12135255"
"xs14_1no3tg","10760379"
"xs14_2egu156","10412380"
"xs14_o4s079cz01","9073878"
"xs14_i5q453z11","7048418"
"xs14_39e0eio","6269588"
"xs14_g88q552z121","6253393"
"xs14_31ego8a6","6240547"
"xs14_g2u0696z11","5903589"
"xs14_o4id1e8z01","5850904"
"xs14_0g8o653z321","5729700"
"xs14_g88m552z121","5137747"
"xs14_mmge13z1","4289739"
"xs14_69960ui","3871500"
"xs14_08o69a4z321","3822877"
"xs14_08o6952z321","3770372"
"xs14_c88a53z33","3686824"
"xs14_08o0e96z321","3514075"
"xs14_0mk453z321","3451756"
"xs14_65p68ozx11","3376184"
"xs14_08u1e8z321","3279528"
"xs14_69arzx123","3240193"
"xs14_69f0f9","3229227"
"xs14_32qj4ko","3193068"
"xs14_08o0e93z321","3016025"
"xs14_g4s0796z11","2477888"
"xs14_4a9raa4","2445779"
"xs14_3hu0ui","2351434"
"xs14_69akgkczx1","2313007"
"xs14_6970si6","2213426"
"xs14_c88e13z33","1722454"
"xs14_0gbaa4z343","1656182"
"xs14_0cq1e8z321","1612818"
"xs14_08u1acz321","1538617"
"xs14_3hu0okc","1508414"
"xs14_4a9ria4","1446128"
"xs14_259e0mq","1436131"
"xs14_0g8ob96z23","1398453"
"xs14_6530f96","1353267"
"xs14_c88b52z33","1239204"
"xs14_wggm93z643","1112795"
"xs14_65la4ozx11","1087448"
"xs14_djozx356","1057500"
"xs14_3560uic","1037634"
"xs14_69jzx12453","1001969"
"xs14_ci96zw1156","995177"
"xs14_3560uh3","940614"
"xs14_0gbb8oz321","870837"
"xs14_65pa4ozx11","867898"
"xs14_3hu06ac","837560"
"xs14_256o8a53","811328"
"xs14_0gbaicz321","763701"
"xs14_31egm93","756887"
"xs14_4aaraa4","756544"
"xs14_69iczx1156","718019"
"xs14_dbgzmq1","678549"
"xs14_0g8ehrz121","647579"
"xs14_cai3zbd","613167"
"xs14_0md1e8z32","611170"
"xs14_178f1e8","594477"
"xs14_354cgs26","526891"
"xs14_o8brzx123","522463"
"xs14_wggca52z2521","489611"
"xs14_69ak8zx1252","482556"
"xs14_354c32ac","461652"
"xs14_64pb8ozx11","434612"
"xs14_wggm96z643","406825"
"xs14_64132qr","361904"
"xs14_0gbqicz23","342884"
"xs14_0gbb8oz123","331047"
"xs14_o4s0796z01","327993"
"xs14_g84q552z121","327477"
"xs14_0gbap3z121","318961"
"xs14_g6pb8oz11","303113"
"xs14_3542tic","285762"
"xs14_i5q8a6z11","273957"
"xs14_64lb8ozw11","272775"
"xs14_c88a52z352","270899"
"xs14_33gv146","258499"
"xs14_3lmge2z01","253550"
"xs14_8o0uh3z23","252715"
"xs14_2552sga6","247660"
"xs14_08u156z65","237517"
"xs14_6421fgkc","223578"
"xs14_j5s252z11","219288"
"xs14_178c2ego","216204"
"xs14_178jq23","212564"
"xs14_wgil96z252","205306"
"xs14_wggm952z252","203091"
"xs14_0m2s53z121","180809"
"xs14_65la8czw11","180302"
"xs14_4a9j08ozx121","175695"
"xs14_08ka952z321","165980"
"xs14_35ac0f9","165674"
"xs14_wggm96z652","153645"
"xs14_4s0f96z11","144483"
"xs14_0g6p2sgz121","128124"
"xs14_4s0fhoz11","125088"
"xs14_25is0qm","124918"
"xs14_6970sic","117810"
"xs14_39c0f96","112525"
"xs14_8ehjzw1252","109717"
"xs14_wggka52z643","107963"
"xs14_xok871z253","105046"
"xs14_03lkk8z252","99752"
"xs14_0g0s2pmz121","98435"
"xs14_0gbaa4z643","97132"
"xs14_4s0ci96z11","91408"
"xs14_0c88b5z253","84976"
"xs14_drz012156","84695"
"xs14_4a9b8ozx32","76083"
"xs14_25a8o653","75714"
"xs14_32132qr","75469"
"xs14_178bq23","71845"
"xs14_0gbq23z321","69689"
"xs14_cilmzx252","69134"
"xs14_0mp3zc96","64917"
"xs14_04s39cz321","64398"
"xs14_xoka52z253","62768"
"xs14_0ggm952z56","61921"
"xs14_g8o652z1ac","57994"
"xs14_69ic0f9","57308"
"xs14_39m8628c","56348"
"xs14_wggm96z256","55210"
"xs14_0c88a52z253","55106"
"xs14_35iczx1156","53280"
"xs14_69eg8ozw23","51288"
"xs14_0gba96z321","50931"
"xs14_4aq453z32","50454"
"xs14_31230fho","50252"
"xs14_25a88cz0253","49493"
"xs14_2ege1da","49294"
"xs14_032qk8z253","48793"
"xs14_wggc871z2521","48747"
"xs14_wggm93z652","48128"
"xs14_g84213z178c","47810"
"xs14_3146164ko","47172"
"xs14_255q8a52","46374"
"xs14_gilmz1w252","44796"
"xs14_31e861ac","43684"
"xs14_31e8gzwbd","42318"
"xs14_0gba96z123","42014"
"xs14_25b8oge2","41724"
"xs14_j5s246z11","41441"
"xs14_64lb8ozx11","38352"
"xs14_35icz69c","37956"
"xs14_4aarzx1252","37271"
"xs14_ck31246z023","37003"
"xs14_259e0db","36956"
"xs14_08k8a53z321","36860"
"xs14_178bp46","34582"
"xs14_ggca53z65","33951"
"xs14_wggc871z6221","33173"
"xs14_drz012552","32772"
"xs14_wg8o653z65","31336"
"xs14_cp3z012156","30686"
"xs14_6ikm96z01","29676"
"xs14_08p78cz321","29360"
"xs14_25iczw178c","29084"
"xs14_0o4a53z643","29063"
"xs14_31eozx1256","28988"
"xs14_0j5s26z121","28614"
"xs14_wggka52z652","28397"
"xs14_wggs252z652","27339"
"xs14_08u15a4z32","27311"
"xs14_354cj96","26790"
"xs14_356o8b5","26385"
"xs14_0g6p56z321","25981"
"xs14_256o8b52","24814"
"xs14_3pmzw34a4","24381"
"xs14_cp3z012552","24097"
"xs14_wg8ka52z643","24097"
"xs14_69icga6zx1","23653"
"xs14_0ml9a4z121","23190"
"xs14_65lmzw1023","22070"
"xs14_4aab8ozx32","21830"
"xs14_3hu0og4c","21739"
"xs14_65la8ozx11","21388"
"xs14_0ggraa4z32","21091"
"xs14_xoge13z253","21075"
"xs14_0gil96z56","20954"
"xs14_2ego8a53","20677"
"xs14_321fgka4","20532"
"xs14_356o8gkc","20174"
"xs14_j96z178c","20122"
"xs14_0j9egoz121","19673"
"xs14_3hu0oi6","19361"
"xs14_0g4q552z321","18644"
"xs14_3542sga6","18489"
"xs14_3hu0628c","18290"
"xs14_330fh84c","18245"
"xs14_31eozx1253","18012"
"xs14_0mk453z641","17877"
"xs14_4a9mkk8zx1","17833"
"xs14_2eg8o653","17240"
"xs14_wggka52z256","17043"
"xs14_1no31e8","16578"
"xs14_4aabgzx1252","16231"
"xs14_628c2d96","16049"
"xs14_628c0f96","15879"
"xs14_358go0ui","15555"
"xs14_0g8ka53z321","15399"
"xs14_8ehjkczw1","15282"
"xs14_04ap56z311","14949"
"xs14_69q4goz023","14746"
"xs14_wg8ge13z643","14297"
"xs14_0g0si52z343","14028"
"xs14_wg8k871z4701","13855"
"xs14_i5t246z11","13786"
"xs14_wggka53z252","13659"
"xs14_wggm93z256","13490"
"xs14_xg8o652zca1","13274"
"xs14_8u15a4z32","13088"
"xs14_cai3zw1156","12824"
"xs14_08o0uh3z32","12632"
"xs14_1784264ko","12520"
"xs14_252sgc4go","12469"
"xs14_03hik8z643","12390"
"xs14_8ehjzw1074","12344"
"xs14_2ege12ko","12261"
"xs14_wg8k871z2521","12210"
"xs14_2530fh8o","11852"
"xs14_31ege123","11717"
"xs14_3loz32ac","11491"
"xs14_178f1246","11022"
"xs14_0gbaa4z1252","11002"
"xs14_39c0fho","10836"
"xs14_32qczx1156","10805"
"xs14_wg8k871z643","10698"
"xs14_3pa4zw1156","10341"
"xs14_dbz3553","10338"
"xs14_0bq2sgz32","10219"
"xs14_31460uic","9997"
"xs14_wgjla4z252","9631"
"xs14_025ak8z6511","9517"
"xs14_wg8ka52z2521","9334"
"xs14_39m86246","9078"
"xs14_0cq23z69c","9068"
"xs14_35a88gzwca1","8943"
"xs14_wgila4z643","8926"
"xs14_c9jz354c","8758"
"xs14_wggc453z643","8746"
"xs14_ca9jzw1252","8333"
"xs14_0ggo3tgz32","8232"
"xs14_08o652z69c","8220"
"xs14_0ck8a52z321","8188"
"xs14_8k453zbd","8088"
"xs14_oe12koz23","7891"
"xs14_9f03pm","7522"
"xs14_642hu066","7410"
"xs14_j9a4zc93","7322"
"xs14_ml96z56","6881"
"xs14_ci53zw1248c","6753"
"xs14_32hu06a4","6682"
"xs14_wggs252z256","6505"
"xs14_8k4r9a4zw1","6213"
"xs14_31460uh3","6202"
"xs14_g4c0fhoz11","6199"
"xs14_ci53zbd","6103"
"xs14_628c2dic","6032"
"xs14_651i4ozw321","5960"
"xs14_354260ui","5880"
"xs14_ci53z39c","5742"
"xs14_xgs252z4a43","5670"
"xs14_g8ka53z56","5659"
"xs14_8ljgzx1156","5546"
"xs14_ok2156z65","5510"
"xs14_4a9jzx1156","5361"
"xs14_651230f9","5339"
"xs14_25b8og84c","5131"
"xs14_bdz3553","4934"
"xs14_6413kczw65","4874"
"xs14_032ak8z6511","4841"
"xs14_178kk871","4703"
"xs14_wggka23z643","4637"
"xs14_3pczw12453","4584"
"xs14_4a51i4ozx121","4548"
"xs14_6ikm93z01","4464"
"xs14_031eozok21","4449"
"xs14_0drzrm","4338"
"xs14_03iak8z2521","4309"
"xs14_358e1da","4298"
"xs14_32130fho","4296"
"xs14_35iczw1256","4289"
"xs14_0g8kk871z23","4285"
"xs14_w8o653zca1","4217"
"xs14_32qczx1248c","4060"
"xs14_raiczx113","3891"
"xs14_3hu06246","3833"
"xs14_3pczwpic","3760"
"xs14_25a84cga6","3751"
"xs14_03iarz65","3618"
"xs14_j5o652z11","3562"
"xs14_6421egma","3356"
"xs14_3123qp3","3287"
"xs14_178ka4z311","3255"
"xs14_0j9ak8z321","3242"
"xs14_2560uh23","3240"
"xs14_wgila4z652","3113"
"xs14_32arzx1252","3031"
"xs14_8ljgzx696","3027"
"xs14_wg8ka23z643","2993"
"xs14_3lozpi6","2991"
"xs14_065la4z321","2987"
"xs14_0ggca53z641","2987"
"xs14_g8421e8z1252","2957"
"xs14_3hu06426","2895"
"xs14_3lozx31246","2838"
"xs14_8ljgzx34a4","2806"
"xs14_0ggka53z56","2805"
"xs14_0gilicz641","2802"
"xs14_25a8o0ui","2747"
"xs14_252sgc48c","2703"
"xs14_8o0ojdz23","2700"
"xs14_08o652z254c","2699"
"xs14_0mlicz56","2693"
"xs14_3pajkc","2692"
"xs14_4ap3zw1256","2676"
"xs14_025a4ozc8421","2595"
"xs14_0bt066z32","2592"
"xs14_31248gzy212453","2506"
"xs14_08objoz32","2488"
"xs14_31e88gzwca1","2461"
"xs14_ggka52sgz1","2380"
"xs14_354qa4zx23","2337"
"xs14_358go8gkc","2263"
"xs14_4a9jz0bd","2249"
"xs14_64kb9czw11","2229"
"xs14_358go8b5","2218"
"xs14_0jhe8zca1","2192"
"xs14_3pczw115a4","2167"
"xs14_4ap3zw1253","2142"
"xs14_03iak8z6221","2140"
"xs14_0g8gka53z23","2112"
"xs14_32qbzx1246","2066"
"xs14_j5c2koz11","2020"
"xs14_3loz1qm","1984"
"xs14_8ehjzw1226","1982"
"xs14_3iarz056","1961"
"xs14_3pmzx3213","1944"
"xs14_4aajkk8zx1","1944"
"xs14_04al96z311","1917"
"xs14_0ok453zca1","1882"
"xs14_02eg853z311","1829"
"xs14_jhke13z1","1764"
"xs14_358gzw116io","1705"
"xs14_31246pic","1696"
"xs14_252sgz0db","1614"
"xs14_0j9akoz121","1598"
"xs14_08lb8oz321","1564"
"xs14_25a842ako","1540"
"xs14_25b88gzwca1","1497"
"xs14_4ap3z69c","1483"
"xs14_31eg8oz311","1413"
"xs14_31248n96","1341"
"xs14_358gzwok96","1341"
"xs14_35a8og84c","1315"
"xs14_25a8og853","1264"
"xs14_0gjla4z56","1215"
"xs14_j5ka52z11","1198"
"xs14_0g8ge1e8z23","1193"
"xs14_6413kcz0321","1159"
"xs14_358gu246","1157"
"xs14_0o4a52zbd","1154"
"xs14_i5d2koz11","1151"
"xs14_oe1248cz23","1150"
"xs14_64268m96","1136"
"xs14_256o8gka4","1135"
"xs14_rai3zx123","1123"
"xs14_4a52sga6","1120"
"xs14_69jzx1248go","1115"
"xs14_358gka53","1114"
"xs14_0g8jq23z23","1108"
"xs14_69jzxpic","1084"
"xs14_wg8k871z6221","1073"
"xs14_wgbq23z65","1060"
"xs14_0o4871z39c","1028"
"xs14_c9jzw115a4","993"
"xs14_wggka23z652","938"
"xs14_178c48a52","933"
"xs14_321f84ko","931"
"xs14_gs25a4z56","926"
"xs14_0ck3146z321","912"
"xs14_03iak8z643","896"
"xs14_3lozx35a4","853"
"xs14_0kq23zc96","832"
"xs14_2eg8og853","820"
"xs14_32qkzx34a4","813"
"xs14_35akg8426","748"
"xs14_0kc32acz32","737"
"xs14_4aarzx1213","725"
"xs14_321eg84ko","724"
"xs14_ghn84koz1","722"
"xs14_321560ui","700"
"xs14_g88a52zdb","700"
"xs14_1no31246","698"
"xs14_04al56z311","690"
"xs14_358gzx23ck8","689"
"xs14_09fg4cz321","683"
"xs14_3pczw11da","670"
"xs14_8ljgzx25a4","661"
"xs14_g88a52zc96","644"
"xs14_31eg842ac","632"
"xs14_1784215ac","622"
"xs14_8ljgzx69c","620"
"xs14_252sgzc93","616"
"xs14_0o4a52z39c","610"
"xs14_01784ozc8421","595"
"xs14_gba952z23","593"
"xs14_ca9jzw1226","591"
"xs14_25iczx115a4","573"
"xs14_gs25a4z146","561"
"xs14_c9jzmq1","551"
"xs14_0j96zol3","523"
"xs14_g8ge13z1ac","515"
"xs14_i5m853z11","514"
"xs14_31eg8og4c","502"
"xs14_c9jz6ip","502"
"xs14_wgila4z256","498"
"xs14_0ghn84cz32","471"
"xs14_3pczw6jo","470"
"xs14_ol3zw32ac","462"
"xs14_0178k8z6511","451"
"xs14_069la4z311","448"
"xs14_08k453z4a43","445"
"xs14_358e12ko","440"
"xs14_g853zdjo","438"
"xs14_8k9b8oz023","416"
"xs14_0g84213zol3","407"
"xs14_25a4ozx34a4","406"
"xs14_wggka23z256","401"
"xs14_wkc0f9z65","399"
"xs14_0ggs253z56","397"
"xs14_c842arzx32","396"
"xs14_j9cz11da","394"
"xs14_3pmzw3426","392"
"xs14_ci52zw12453","392"
"xs14_025iczcip","391"
"xs14_04ak871z311","390"
"xs14_4ai3zx12453","389"
"xs14_32arzca1","376"
"xs14_2ege1248c","375"
"xs14_0j96zrm","359"
"xs14_0g6p3zbc1","353"
"xs14_bdggka4zw1","352"
"xs14_djozx3146","352"
"xs14_358gka246","334"
"xs14_0cp3zoj6","322"
"xs14_31ek13zx23","322"
"xs14_25a88gzc8421","313"
"xs14_0g8421egoz32","304"
"xs14_g88b5zdb","289"
"xs14_djozxbd","276"
"xs14_5b8oz0bd","272"
"xs14_ci52z3lo","258"
"xs14_4ai31e8z011","251"
"xs14_358ge2z311","244"
"xs14_03hik8z256","234"
"xs14_03pmzdb","233"
"xs14_178c48ge2","224"
"xs14_mp3zw3146","223"
"xs14_3pa4zw1248c","222"
"xs14_5b8o0ui","219"
"xs14_ra248cz23","217"
"xs14_178421ego","215"
"xs14_0o4a52zc452","212"
"xs14_03hik8z652","208"
"xs14_cp3zrm","208"
"xs14_32qk0f9","200"
"xs14_0cp3zrm","199"
"xs14_0252sgz6413","196"
"xs14_32qbzx1ac","196"
"xs14_642hjkczx1","196"
"xs14_312kozx12ko","191"
"xs14_32arzx1213","187"
"xs14_mp3zw3123","184"
"xs14_25a4ozok21","181"
"xs14_178426853","180"
"xs14_wg8og853z65","180"
"xs14_w8k8a52z2521","169"
"xs14_4ai3146zw23","165"
"xs14_wog853zdb","165"
"xs14_0drz69k8","164"
"xs14_32arzw1226","160"
"xs14_0ggs256z56","159"
"xs14_3p6853z11","159"
"xs14_8k461acz023","144"
"xs14_wggc871z4701","144"
"xs14_4ai3zx1248go","143"
"xs14_25akg84ko","142"
"xs14_ck312koz11","139"
"xs14_amggdbzx1","138"
"xs14_ca9jzca1","137"
"xs14_32hv04a4","132"
"xs14_3pczw1248go","132"
"xs14_0g84213zrm","128"
"xs14_djozx3123","117"
"xs14_g8ka52z1ac","117"
"xs14_25a8og8426","116"
"xs14_4ai3zxpic","115"
"xs14_ggkq23z56","114"
"xs14_03ia4zoj6","108"
"xs14_3ia4zw11da","107"
"xs14_ca168ozx65","107"
"xs14_ggc4871z146","106"
"xs14_0g8421e8z1226","101"
"xs14_0ggo8a52z56","98"
"xs14_1784c0f9","96"
"xs14_0gila4z1ac","94"
"xs14_9v04a4z32","93"
"xs14_05b88gzc8421","91"
"xs14_wo8a52zbd","90"
"xs14_8ljgzx254c","88"
"xs14_25iczoj6","87"
"xs14_0354k8zok21","84"
"xs14_09v04a4z32","79"
"xs14_0o4871zbd","78"
"xs14_39c88czw252","78"
"xs14_5bo8goz32","77"
"xs14_djozx39c","76"
"xs14_o4a5123z23","76"
"xs14_32akg84ko","75"
"xs14_6421eozx65","73"
"xs14_32qczx12ko","72"
"xs14_358gzw11mq","71"
"xs14_wok213zdb","71"
"xs14_0j9c84cz121","70"
"xs14_3lozx31e8","68"
"xs14_ci52zw1248go","65"
"xs14_drzrm","65"
"xs14_xok213zc93","65"
"xs14_0358gz2lp1","64"
"xs14_1784ozx34a4","64"
"xs14_mp3zw39c","62"
"xs14_3ia4zrm","61"
"xs14_0ok21e8z641","59"
"xs14_g8k871z1ac","59"
"xs14_xog853zc93","57"
"xs14_db8ozca1","53"
"xs14_xg853zg6dz11","53"
"xs14_wg853zmdz11","52"
"xs14_ok21e8z65","51"
"xs14_1784ozok21","49"
"xs14_5b8o6426","49"
"xs14_0g8jdzbc1","48"
"xs14_kc321e8z11","48"
"xs14_32qkzdb","47"
"xs14_32qkzx3426","47"
"xs14_gjloz1ac","46"
"xs14_3ia4zol3","44"
"xs14_3ia4zw115a4","43"
"xs14_358gzw4ajo","42"
"xs14_69m88czw23","42"
"xs14_y1g84213zg8421z11","41"
"xs14_25iczx11da","35"
"xs14_3146o8b5","33"
"xs14_39cggmazx1","33"
"xs14_178k46z311","32"
"xs14_c9jzw1qm","31"
"xs14_0358gz8ka221","30"
"xs14_32qkzw254c","26"
"xs14_5b8ozxc93","26"
"xs14_ggc4871z56","25"
"xs14_0j9c826z121","23"
"xs14_32qkzok21","23"
"xs14_dj8gzx34a4","22"
"xs14_358ge1246","21"
"xs14_032qkzc93","20"
"xs14_178ka248c","20"
"xs14_3lozx354c","20"
"xs14_g8ka23z1ac","20"
"xs14_w8o6413zca1","18"
"xs14_wg853zgb6z11","18"
"xs14_025icz4a9o","17"
"xs14_08kai3z6221","17"
"xs14_0o4871zc452","17"
"xs14_kq23zw3146","16"
"xs14_c9jzwpi6","15"
"xs14_64k871z65","14"
"xs14_wo8b5zbd","13"
"xs14_0g4q23zbc1","12"
"xs14_25icz69k8","10"
"xs14_31248ge123","10"
"xs14_5b8og8426","10"
"xs14_3213kczw65","9"
"xs14_8ljgzx3426","9"
"xs14_wkc3213z65","9"
"xs14_xg84215a4z321","9"
"xs14_8e1248gzy31246","8"
"xs14_0j5oz3kp","6"
"xs14_358gzmp21","6"
"xs14_j9c826z23","6"
"xs14_wg853zg853z11","5"
"xs14_dbgzw1qm","4"
"xs14_dj8gzx3426","4"
"xs14_0ggo8b5z56","3"
"xs14_31248gzy21248go","2"
"xs14_3lozx3lo","2"
"xs14_4ai3zwo9a4","2"
