"apgcode","occurrences"
"xs15_354cgc453","965780920"
"xs15_j1u06a4z11","136299446"
"xs15_259e0eic","94238450"
"xs15_3lkm96z01","64271568"
"xs15_3lk453z121","42679094"
"xs15_4a9raic","38282765"
"xs15_259e0e96","29744968"
"xs15_0gilicz346","18525299"
"xs15_259e0e93","16879998"
"xs15_259e0eio","14929737"
"xs15_09v0ccz321","8708969"
"xs15_o4s3pmz01","8561534"
"xs15_25960uh3","7398771"
"xs15_6t1egoz11","7296444"
"xs15_g8o6996z121","7112320"
"xs15_3213ob96","6335529"
"xs15_08o6996z321","6286739"
"xs15_69aczw6513","6130131"
"xs15_69bojd","5591616"
"xs15_25960uic","4961240"
"xs15_25a8ob96","4754268"
"xs15_4a9b8oz033","3598136"
"xs15_0ggca96z3421","3436252"
"xs15_69ak8zx1256","3056678"
"xs15_178bqic","2734487"
"xs15_33gv1oo","2621548"
"xs15_0ggmp3z346","2566086"
"xs15_4ap6426z032","2458159"
"xs15_0g8ka96z3421","2363485"
"xs15_65123qic","2264585"
"xs15_06t1acz321","2093638"
"xs15_3hu069a4","1951684"
"xs15_4a960uic","1781216"
"xs15_0mk453z3421","1776707"
"xs15_0j1u066z121","1686795"
"xs15_oggm96z66","1654735"
"xs15_699m88gzx121","1650063"
"xs15_ca96zw3552","1644680"
"xs15_0gbb8oz343","1638358"
"xs15_06t1e8z321","1355268"
"xs15_0c8a52z2553","1324176"
"xs15_25is0sic","1289401"
"xs15_4a970si6","1288672"
"xs15_0g8ehrz321","1212960"
"xs15_0ggca96z1243","1118599"
"xs15_69aczx3156","1041585"
"xs15_g88m596z121","1033905"
"xs15_0g0si53z343","987719"
"xs15_kc0si96z11","956397"
"xs15_ca96zw3156","936705"
"xs15_xoka52z653","780058"
"xs15_0cid96z321","743921"
"xs15_259mge13","686613"
"xs15_25is0si6","681468"
"xs15_0mk453z1243","594290"
"xs15_695q88gzx121","539621"
"xs15_25a8czx6513","514808"
"xs15_0j1u0ooz121","497111"
"xs15_69aczx3552","489686"
"xs15_4aara96","468462"
"xs15_c88b52z352","448786"
"xs15_0gbaa4z3452","441625"
"xs15_wggm952z643","385887"
"xs15_69aczw2553","360997"
"xs15_0c8a52z6513","359035"
"xs15_0gbap3z321","334900"
"xs15_4a970sic","310394"
"xs15_xok871z653","304940"
"xs15_65la4ozw121","278996"
"xs15_3loz12ego","277144"
"xs15_25ac0fho","276231"
"xs15_j5q8a6z11","271450"
"xs15_08u1daz321","264253"
"xs15_178c0f96","258888"
"xs15_3pm0eic","232641"
"xs15_699mkk8zx1","224286"
"xs15_0ggci96z343","217919"
"xs15_31ege2ko","212326"
"xs15_0g0si96z343","208199"
"xs15_xg8o653zca1","206217"
"xs15_wggca52z6521","203441"
"xs15_g88a52z178c","198114"
"xs15_178bpic","198070"
"xs15_c88e13z352","189808"
"xs15_2egu15a4","185839"
"xs15_3pm0e96","178449"
"xs15_4aab8oz033","177466"
"xs15_39e0mp3","171280"
"xs15_0gba96z343","168895"
"xs15_0ggci96z643","168183"
"xs15_69b88czw252","161883"
"xs15_25ac0f96","158265"
"xs15_69is0qm","155404"
"xs15_0c88a52z2552","155361"
"xs15_358gu156","148784"
"xs15_255q8a53","146042"
"xs15_3lkia4z32","134827"
"xs15_354miozw32","134320"
"xs15_2ego8br","132545"
"xs15_4aabgzx3452","128306"
"xs15_31eozx12552","126292"
"xs15_2ege1ego","125350"
"xs15_39u066z032","124833"
"xs15_02llicz252","117024"
"xs15_0gbhe8z3421","109455"
"xs15_02l2sgz2543","108707"
"xs15_25aczw31156","108063"
"xs15_699m4k8zx11","106740"
"xs15_0g0s2qrz121","105570"
"xs15_8ehjzw1256","104095"
"xs15_39u0ooz32","98886"
"xs15_39u066z32","96756"
"xs15_0c88a53z253","93068"
"xs15_wggm96z696","92482"
"xs15_g8e13zpi6","91895"
"xs15_03pczok452","91539"
"xs15_5b88a6z033","90551"
"xs15_256o8br","87248"
"xs15_64lb8ozw121","87248"
"xs15_cilmzx346","87186"
"xs15_g8id1egoz01","86833"
"xs15_wgil96z643","86612"
"xs15_4a9ra96","86415"
"xs15_31eozw122ac","85221"
"xs15_2552sgz0253","84338"
"xs15_3pq32ac","81654"
"xs15_0at1e8z321","79983"
"xs15_oggm93z66","75372"
"xs15_03lk46z2521","73990"
"xs15_g8hf0cicz01","73589"
"xs15_025a8cz6513","72454"
"xs15_0ggo8brz32","71427"
"xs15_356o8a53","71194"
"xs15_2lla8oz121","71140"
"xs15_0at1acz321","69345"
"xs15_178c2dio","66129"
"xs15_03lkk8z652","64961"
"xs15_03lkk8z643","64547"
"xs15_bd0ehr","64395"
"xs15_3lkm93z01","63660"
"xs15_0ggraicz32","62151"
"xs15_4a9r8b5","61845"
"xs15_6413ob96","60670"
"xs15_gilmz1w256","58935"
"xs15_xc8a52z6513","58423"
"xs15_3hu0oka4","57978"
"xs15_wmk453z643","55729"
"xs15_0g8gu156z23","55309"
"xs15_354c0f96","54518"
"xs15_0mlla4z32","52058"
"xs15_65lmzx346","49484"
"xs15_0g6p2sgz321","48642"
"xs15_oggka52z66","47511"
"xs15_08o653z69c","47455"
"xs15_39e0djo","46704"
"xs15_178c2c871","46493"
"xs15_g4s3pmz11","43703"
"xs15_32qczx12453","41012"
"xs15_c88a53z352","40441"
"xs15_4a9r2qk","40343"
"xs15_xoka53z253","40203"
"xs15_035iczcip","39996"
"xs15_8e1qczx1252","39767"
"xs15_65la8ozw121","39659"
"xs15_0j5s26z321","39494"
"xs15_0j9akoz321","38885"
"xs15_wggm952z652","38780"
"xs15_25b8o653","38733"
"xs15_ca9jzw3452","37639"
"xs15_178c2d96","37511"
"xs15_0gba96z643","36969"
"xs15_w8u156zca1","35987"
"xs15_0bq1e8z321","35934"
"xs15_w8o69a4z2521","35396"
"xs15_69d2cga6","35172"
"xs15_xoge13z653","34955"
"xs15_0gbb8oz643","34434"
"xs15_04aq453z311","34375"
"xs15_g8ob96z56","34353"
"xs15_253gv146","33906"
"xs15_31kmicz032","33832"
"xs15_wggm952z256","33325"
"xs15_4s0s2pmzw1","33241"
"xs15_xc8a52z2553","32595"
"xs15_bdgmiczw1","32435"
"xs15_j5s256z11","31533"
"xs15_0ggs2pmz32","31343"
"xs15_69lmzx346","31250"
"xs15_wg8ka53z643","30805"
"xs15_c88b9czw33","30658"
"xs15_25aczw3553","29874"
"xs15_025a8cz2553","29754"
"xs15_ciabgzx1252","29567"
"xs15_2lmge2z32","29508"
"xs15_0g6picz343","28046"
"xs15_03lkicz252","27307"
"xs15_0gbaarz121","27276"
"xs15_25akggozx66","26352"
"xs15_cilmzx256","26081"
"xs15_03lk46z643","25524"
"xs15_8e1u8zx1252","25363"
"xs15_gilmz1w346","24837"
"xs15_3iaczw178c","24740"
"xs15_0gbq2sgz121","24241"
"xs15_0o4a96z39c","24196"
"xs15_cq23z012552","24170"
"xs15_wmd1e8z65","23713"
"xs15_08o69icz321","23281"
"xs15_wgil96z652","22594"
"xs15_g8o69icz121","22199"
"xs15_0c88b52z253","22055"
"xs15_ciaj2aczw1","22022"
"xs15_25ako0ui","21899"
"xs15_5b8ob96","21875"
"xs15_354m93zw32","21772"
"xs15_gjlmz1w252","21701"
"xs15_wg8ob96z65","21451"
"xs15_j5q453z11","20821"
"xs15_08k453zca43","19755"
"xs15_gilmz1w652","19656"
"xs15_0ggrb8oz32","18996"
"xs15_0cq1daz321","18831"
"xs15_69iczx115a4","18725"
"xs15_25is079c","18535"
"xs15_5b88a6zx33","18255"
"xs15_w8o6952z2521","18226"
"xs15_3hu0o8a6","17947"
"xs15_31e88cz0253","17787"
"xs15_032qk8z653","17263"
"xs15_03lka4z643","17134"
"xs15_178c0fho","16928"
"xs15_25a88gz4a511","16845"
"xs15_j5s253z11","16273"
"xs15_wggka53z643","16273"
"xs15_wgbqicz65","16090"
"xs15_31eozw34ac","16013"
"xs15_4a9ri96","15916"
"xs15_0c88a52z653","15834"
"xs15_0ok213zca23","15547"
"xs15_259eg8ozx23","15123"
"xs15_oggs252z66","14730"
"xs15_gbb871z23","14536"
"xs15_354c0fho","14192"
"xs15_2ege1da4","14086"
"xs15_wggm93z696","14074"
"xs15_354ko0ui","13570"
"xs15_2ego0uh3","13377"
"xs15_6ikm952z01","13323"
"xs15_03lkk8z256","13292"
"xs15_0ggra96z32","12387"
"xs15_695q4ozw121","11921"
"xs15_065pa4z2521","11886"
"xs15_c82t52z311","11842"
"xs15_32ac0f96","11575"
"xs15_25a8oge13","11562"
"xs15_4aar9ic","11510"
"xs15_6248gu156","11198"
"xs15_0g8o652zbc1","11056"
"xs15_cilmzx652","11011"
"xs15_39c8a6zx33","10946"
"xs15_35a88cz0253","10875"
"xs15_178f12ko","10846"
"xs15_2eg8ob96","10823"
"xs15_39c8a6z033","10436"
"xs15_0c9b8oz253","10392"
"xs15_256o8gka6","10145"
"xs15_c88a52z356","10141"
"xs15_0m2s53z321","10133"
"xs15_ogkq23z66","10038"
"xs15_g853z123ck8","10034"
"xs15_0ggdjoz343","9949"
"xs15_32qkgozw66","9949"
"xs15_wg8k871z6521","9891"
"xs15_g8o653z1ac","9714"
"xs15_3lkczc96","9676"
"xs15_32hu0696","9653"
"xs15_0c4gf9z2521","9559"
"xs15_25a8o64ko","9523"
"xs15_wggka52z696","9507"
"xs15_0i5q453z121","9343"
"xs15_321ego8a6","9250"
"xs15_4a9b88gzx311","9222"
"xs15_0gjlicz641","9156"
"xs15_25a8czx2553","9088"
"xs15_252sgc453","9017"
"xs15_wg8kq23z643","8958"
"xs15_0gbaa4z1256","8914"
"xs15_0o4a96zbd","8817"
"xs15_25b88cz0253","8741"
"xs15_wggka53z652","8658"
"xs15_4aligozw66","8591"
"xs15_354cgc2ko","8455"
"xs15_4aar2qk","8431"
"xs15_4ap5a4z321","8371"
"xs15_wggs252z696","8332"
"xs15_pf0352z23","8317"
"xs15_3542sgz0253","8300"
"xs15_0g8o652zc96","8244"
"xs15_32hu0653","8232"
"xs15_ogila4z66","8210"
"xs15_8k4ra96zw1","8191"
"xs15_wggc871z6521","8018"
"xs15_31ege2z311","8016"
"xs15_358ml96","7966"
"xs15_08o652zoj6","7470"
"xs15_0c88b5z2552","7470"
"xs15_6952sga6","7369"
"xs15_0c88e13z253","7308"
"xs15_32qczx6jo","7184"
"xs15_69ab8ozx32","7004"
"xs15_25a88cz0653","6920"
"xs15_69arzx1252","6850"
"xs15_gs2596z146","6764"
"xs15_178czw3553","6704"
"xs15_04ap3zcip","6652"
"xs15_0ggm96z12ko","6543"
"xs15_0g6pb8oz121","6489"
"xs15_0ck31e8z321","6259"
"xs15_0g0s2pmz321","6239"
"xs15_wgbq23z643","6172"
"xs15_wgil96z256","6169"
"xs15_02lla4z643","6142"
"xs15_g5r8b5z11","6126"
"xs15_31eozx12156","6097"
"xs15_o8brzx1252","6036"
"xs15_4aarz0bd","5983"
"xs15_0gbq2sgz23","5977"
"xs15_ck0o8brzw1","5935"
"xs15_255mgmazx1","5713"
"xs15_2egu2453","5660"
"xs15_3542arzx32","5505"
"xs15_6512kozw643","5461"
"xs15_wgjla4z643","5449"
"xs15_g9fgka4z11","5429"
"xs15_32aczw3553","5415"
"xs15_31248gzc8711","5278"
"xs15_wgjla4z652","5232"
"xs15_0g8ge13zc96","5226"
"xs15_3lkaa4z121","5208"
"xs15_31ego8gkc","5158"
"xs15_35is0qm","5149"
"xs15_2530fpzx32","5141"
"xs15_4aabgzx1256","5095"
"xs15_oggka23z66","5033"
"xs15_321fgs26","5004"
"xs15_j9czd552","4996"
"xs15_4aab88gzx311","4961"
"xs15_djozx35a4","4957"
"xs15_178c2dic","4891"
"xs15_gs2596z56","4851"
"xs15_3pmzw34ac","4845"
"xs15_4a9mgmazx1","4810"
"xs15_64138n96","4781"
"xs15_0256o8z4a521","4765"
"xs15_31ego0ui","4757"
"xs15_o5r8b5z01","4692"
"xs15_2eg6p56zx1","4604"
"xs15_0g8o0uh3z23","4595"
"xs15_wggraa4z252","4590"
"xs15_3pm8628c","4572"
"xs15_4a9b88gzx321","4567"
"xs15_xok4871z253","4564"
"xs15_3iaj2aczw1","4507"
"xs15_wg8ka52z6521","4363"
"xs15_ggkc0fhoz1","4344"
"xs15_ckl3zw34a4","4272"
"xs15_4a51ug84c","4263"
"xs15_25akozx6226","4075"
"xs15_25t28cz321","4061"
"xs15_c88m96z311","4033"
"xs15_0ggdjoz643","3918"
"xs15_0j9cz1215a4","3901"
"xs15_wggka53z256","3864"
"xs15_255q88czx23","3788"
"xs15_32hu0ui","3721"
"xs15_642132qr","3711"
"xs15_wg8o652z69c","3671"
"xs15_caarzw1226","3655"
"xs15_0gs252z1qm","3639"
"xs15_0ck8a53z321","3637"
"xs15_8ljgzx69a4","3625"
"xs15_178ko0ui","3624"
"xs15_4s3iarzw1","3591"
"xs15_0i5q8a6z121","3585"
"xs15_3hu0og84c","3557"
"xs15_0252sgz4a53","3499"
"xs15_2llicz56","3485"
"xs15_ca1u8zx1252","3460"
"xs15_cip68ozx32","3340"
"xs15_32ac0fho","3332"
"xs15_0ghn871z32","3259"
"xs15_31egu246","3195"
"xs15_cila8ozx32","3187"
"xs15_3pczw1178c","3123"
"xs15_25is0796","3111"
"xs15_g88e13zc96","2948"
"xs15_ml56z1ac","2902"
"xs15_wggs252zc96","2898"
"xs15_3hu0ok46","2889"
"xs15_kc32acz123","2860"
"xs15_0c88b5z653","2838"
"xs15_330fh8426","2825"
"xs15_3pczwd552","2813"
"xs15_g88a53zc96","2784"
"xs15_178czw31156","2767"
"xs15_3pmzw34a6","2678"
"xs15_0gs252zpi6","2641"
"xs15_03lk46z6221","2594"
"xs15_031i4oz4a611","2576"
"xs15_31ege1246","2573"
"xs15_3pczw23ck8","2538"
"xs15_0g8kiarz23","2513"
"xs15_08o652zrm","2512"
"xs15_69ajkk8zx1","2493"
"xs15_0kc0f9z346","2445"
"xs15_j5o0uiz11","2424"
"xs15_25ao8a6z032","2421"
"xs15_39m861ac","2413"
"xs15_6agwrdzx121","2401"
"xs15_0o8a52zc453","2400"
"xs15_256o8gzy212ko","2396"
"xs15_178c2cga6","2391"
"xs15_32ako0ui","2383"
"xs15_3pmzw34213","2356"
"xs15_4aarzx1256","2346"
"xs15_cai3z3lo","2296"
"xs15_04al56z2521","2268"
"xs15_0g8id1e8z23","2237"
"xs15_3pmzx32ac","2233"
"xs15_259abgzx65","2206"
"xs15_0gba96z1252","2200"
"xs15_cq23z012156","2185"
"xs15_0j9egoz321","2157"
"xs15_0ml9a4z641","2147"
"xs15_32qjc48c","2143"
"xs15_ciab8oz023","2136"
"xs15_25b871ac","2118"
"xs15_69iczx11da","2084"
"xs15_ci96zw115a4","2063"
"xs15_69abgzx1252","2027"
"xs15_4a4o796zx11","1931"
"xs15_3146178ko","1903"
"xs15_3iab8oz121","1893"
"xs15_69eg8k8zw23","1883"
"xs15_wggs253z652","1860"
"xs15_354cgs246","1834"
"xs15_35a8o0ui","1830"
"xs15_358gzx23cko","1822"
"xs15_2ege12453","1808"
"xs15_08kaarz321","1793"
"xs15_08o653z254c","1783"
"xs15_wgila4z696","1767"
"xs15_39m86248c","1759"
"xs15_dbgz358go","1698"
"xs15_4aarzx1253","1648"
"xs15_4ap3zw12552","1642"
"xs15_0g84213z3ego","1629"
"xs15_252sgc2ko","1623"
"xs15_32arzx1256","1614"
"xs15_9f0c4ozx65","1556"
"xs15_ad1egma","1524"
"xs15_0gba952z123","1514"
"xs15_321egm93","1511"
"xs15_69jc48a6","1507"
"xs15_wggka52zc96","1490"
"xs15_wg8oge13z65","1470"
"xs15_3pa4zw12453","1463"
"xs15_4a4o796zw11","1441"
"xs15_178c48a53","1433"
"xs15_321fgka6","1430"
"xs15_xgs252zca43","1429"
"xs15_3pm86246","1421"
"xs15_32qbzx1156","1420"
"xs15_3p6o8a6zw1","1382"
"xs15_178kiar","1377"
"xs15_c87p8zx1252","1371"
"xs15_4a9mkiczx1","1360"
"xs15_3123cj96","1359"
"xs15_gs2552z1ac","1357"
"xs15_62461tic","1355"
"xs15_w8ka952z2521","1352"
"xs15_031i4ozc8701","1348"
"xs15_ciarzw1226","1332"
"xs15_0g8kc0f9z23","1330"
"xs15_ciligzx1074","1322"
"xs15_0bdge2z321","1307"
"xs15_0o4a52z354c","1297"
"xs15_g8idicz123","1293"
"xs15_354m96zw32","1291"
"xs15_3pczw115ac","1290"
"xs15_6ags2pm","1290"
"xs15_352sgc48c","1269"
"xs15_ra2453z23","1260"
"xs15_25b8o0ui","1247"
"xs15_0mkk871z32","1229"
"xs15_c9jz6a9o","1223"
"xs15_25iczx1178c","1220"
"xs15_08o0uh3z65","1203"
"xs15_312kozy135a4","1197"
"xs15_25b8og853","1191"
"xs15_0cq23zrm","1180"
"xs15_25ao4a4z0321","1151"
"xs15_ci5diczw11","1151"
"xs15_cp3z230352","1148"
"xs15_wo4k871z6221","1138"
"xs15_3lo0uic","1120"
"xs15_db0ga6z311","1116"
"xs15_gs25acz146","1112"
"xs15_oe12453z23","1103"
"xs15_354qajo","1100"
"xs15_0mlicz1ac","1098"
"xs15_0ml9a4z321","1079"
"xs15_039cz3115a4","1067"
"xs15_ml96z1ac","1060"
"xs15_356o8gka4","1059"
"xs15_08p78k8z321","1056"
"xs15_6248hf0cc","1050"
"xs15_wggs253z256","1043"
"xs15_3hu06248c","1034"
"xs15_8ehegoz023","1032"
"xs15_0g8objoz23","1024"
"xs15_caarzca1","1022"
"xs15_0g8ka52zc96","1017"
"xs15_69jzx1248a6","1015"
"xs15_65la8czw23","1009"
"xs15_xg8o652z4a43","1001"
"xs15_4a9diczx32","989"
"xs15_xg8ge13z4a43","987"
"xs15_2530fh84c","986"
"xs15_4al9aczw23","979"
"xs15_wgs25a4z643","978"
"xs15_0bq2sgz65","970"
"xs15_31461tic","969"
"xs15_rai3zx1246","963"
"xs15_wggm93zc96","958"
"xs15_xgila4z4a52","947"
"xs15_2l2s53z121","943"
"xs15_0cilicz321","933"
"xs15_wggka23zc96","929"
"xs15_ci9b8oz023","925"
"xs15_3hu0ol3","921"
"xs15_ca9jzw1256","916"
"xs15_35iczoj6","908"
"xs15_69eg8oz321","899"
"xs15_9v04acz32","897"
"xs15_8kk3146z641","880"
"xs15_g88e13zdb","877"
"xs15_g8idioz123","868"
"xs15_0kc0f96z32","867"
"xs15_djozx354c","861"
"xs15_0drz69ko","853"
"xs15_32hu06ac","853"
"xs15_69n842ac","853"
"xs15_4a60uh246","852"
"xs15_08u15a4z65","849"
"xs15_1no312ko","816"
"xs15_0g84cj96z32","811"
"xs15_0ml56zca1","811"
"xs15_8u15acz32","806"
"xs15_mp3zw35a4","801"
"xs15_drz230352","786"
"xs15_354q96zx23","775"
"xs15_0gil96z1ac","759"
"xs15_4ai3146zx123","756"
"xs15_6iog853z32","750"
"xs15_o4c32acz23","739"
"xs15_3lozpia4","727"
"xs15_03ihe8z2521","723"
"xs15_3lk48cz0146","720"
"xs15_32hu0okc","713"
"xs15_8kk8a52z641","703"
"xs15_j5ka53z11","674"
"xs15_gbaa4zdb","673"
"xs15_ck3146z643","669"
"xs15_c88e123z33","667"
"xs15_08u15acz32","655"
"xs15_3146pb8o","654"
"xs15_0o48a52zbd","650"
"xs15_6ao8a52z32","649"
"xs15_32hjkcz032","645"
"xs15_255q826zx23","639"
"xs15_03hik8z696","637"
"xs15_0g8hf0ccz23","629"
"xs15_xg8ka52z4a43","624"
"xs15_9f0s4zx1252","623"
"xs15_ci5q8a6zw1","623"
"xs15_drz3ego","623"
"xs15_35iczx115a4","614"
"xs15_0j9c871z121","613"
"xs15_03iak8z6521","608"
"xs15_32arzx1253","606"
"xs15_178ka6z311","603"
"xs15_8u178cz32","594"
"xs15_4a4o79czw11","593"
"xs15_25a4ozx3453","586"
"xs15_6ags25ac","584"
"xs15_bdggka6zw1","576"
"xs15_4ai3146z321","573"
"xs15_5bo8a6z32","572"
"xs15_3146178kc","571"
"xs15_69m861ac","570"
"xs15_c9jz358go","552"
"xs15_c9jzw115ac","549"
"xs15_1784ozx122ac","548"
"xs15_178kozx6226","547"
"xs15_04aabgzc8421","540"
"xs15_xggka52z4a43","538"
"xs15_32qkzx34213","535"
"xs15_c93s4zx1252","535"
"xs15_8o6picz23","534"
"xs15_wgila4zc96","531"
"xs15_0o4871z354c","530"
"xs15_3pmzcip","530"
"xs15_05b88gz4a511","527"
"xs15_8ka52zw115a4","522"
"xs15_wggka23z696","514"
"xs15_3pa4zw115a4","513"
"xs15_25a8k8zwbd","508"
"xs15_1784cj96","493"
"xs15_0c9jzojd","484"
"xs15_312kozxc871","481"
"xs15_025a4oz35421","480"
"xs15_32138n96","469"
"xs15_256o8ge13","468"
"xs15_6ic0f9z32","466"
"xs15_ckl3zw3426","459"
"xs15_ggm952sgz1","455"
"xs15_259q4gozw23","447"
"xs15_4ap6426z32","445"
"xs15_4aqb8oz32","445"
"xs15_0ckl3zok21","443"
"xs15_69jzx1i4ozy011","436"
"xs15_woka52zdb","435"
"xs15_0ci52zoge3","429"
"xs15_31eozx125a4","424"
"xs15_wck31e8z311","417"
"xs15_08u178cz32","414"
"xs15_358go8a53","407"
"xs15_035ak8z6511","404"
"xs15_4a51i4ozx321","404"
"xs15_0o4a53zbd","400"
"xs15_0gila4z12ko","397"
"xs15_0jhe8zbc1","387"
"xs15_31eozcip","386"
"xs15_255m88czx23","383"
"xs15_3lozx35ac","382"
"xs15_jhe8z69c","382"
"xs15_0j5s252z121","381"
"xs15_ci53zw1248go","381"
"xs15_c88a52z39c","380"
"xs15_g2u0ol3z11","374"
"xs15_178b52sg","362"
"xs15_0dbgzojd","360"
"xs15_j96zd54c","359"
"xs15_25b8ozwbd","354"
"xs15_ci53zw12453","351"
"xs15_32hv04ac","346"
"xs15_358gozxc871","342"
"xs15_69jzw23ck8","341"
"xs15_8kk3123z641","341"
"xs15_25iczxd552","337"
"xs15_3pmz4a9o","337"
"xs15_0mk453zca1","336"
"xs15_0cq23zoj6","331"
"xs15_0ggka52z12ko","330"
"xs15_0g8id2koz23","326"
"xs15_69jzx124871","322"
"xs15_5b8r54c","321"
"xs15_6413kkozx32","319"
"xs15_cp3z3ego","316"
"xs15_0bt06a4z32","314"
"xs15_252sgzx69k8","314"
"xs15_32qczx115a4","314"
"xs15_0ci52zojd","309"
"xs15_g84213zd54c","309"
"xs15_31248c2c826","308"
"xs15_0g8k871zc96","307"
"xs15_c48c93z253","306"
"xs15_xggka52z4a52","306"
"xs15_0gs25a4z1246","303"
"xs15_25ao4cz2521","303"
"xs15_gs25acz56","296"
"xs15_35a842ako","295"
"xs15_69jwo4czx121","293"
"xs15_mkhjz1w252","293"
"xs15_wgjla4z256","291"
"xs15_08o652z69k8","288"
"xs15_0g84213z34ak8","287"
"xs15_ci96zw11da","287"
"xs15_ckl3zx3213","285"
"xs15_25iczw125ac","282"
"xs15_j5m853z11","280"
"xs15_3pczw11da4","279"
"xs15_0j5s246z121","276"
"xs15_g88b52zc96","276"
"xs15_31248c2c84c","274"
"xs15_0bq23z69c","273"
"xs15_0g8gka52z643","265"
"xs15_xgila4z4a43","265"
"xs15_4aarzxc93","264"
"xs15_j5o653z11","264"
"xs15_354c0s4zx65","263"
"xs15_g88a53zdb","263"
"xs15_03iakoz643","257"
"xs15_ci53z3lo","257"
"xs15_01784oz35421","253"
"xs15_6248c2dic","253"
"xs15_xggka23z4a43","246"
"xs15_8kih3zx34a4","242"
"xs15_0g8gka23z643","239"
"xs15_354kozx12ko","237"
"xs15_39eg8oz321","235"
"xs15_0o4a53z39c","230"
"xs15_8kk8a52z065","230"
"xs15_0652sgz6413","228"
"xs15_321e861ac","227"
"xs15_0gjlozc96","226"
"xs15_0gjlkcz641","225"
"xs15_25a4ozx122ac","220"
"xs15_j5c48a6z11","220"
"xs15_25iczwd54c","217"
"xs15_g8e13z1qm","217"
"xs15_0c88a52zc93","215"
"xs15_0kc0fhoz32","213"
"xs15_wggs256z256","210"
"xs15_178kc0f9","209"
"xs15_35a84cga6","208"
"xs15_0ogjl8z4a6","206"
"xs15_0bt066z65","204"
"xs15_0g8ka52zbc1","204"
"xs15_08k453z259c","203"
"xs15_09v04a6z32","203"
"xs15_1784cgs26","203"
"xs15_drz0123146","203"
"xs15_0ok2156zca1","202"
"xs15_bt06a4z32","200"
"xs15_3iarzw1226","198"
"xs15_0c4oa52z2521","196"
"xs15_db8oz39c","196"
"xs15_gild2koz1","195"
"xs15_0358gzoge221","193"
"xs15_0j9eg8oz121","192"
"xs15_178k453zx23","192"
"xs15_25b8o6413","192"
"xs15_69arzx1213","189"
"xs15_x8o652zad11","189"
"xs15_j5ozd54c","188"
"xs15_3lozha6z11","187"
"xs15_j9aczdb","186"
"xs15_0o861acz643","183"
"xs15_8o652zrm","182"
"xs15_xoka52zc93","182"
"xs15_3ia4zw115ac","180"
"xs15_0g4qajoz121","179"
"xs15_3146o8a53","178"
"xs15_31eozoj6","178"
"xs15_kq23zw35a4","178"
"xs15_2ld2koz32","173"
"xs15_32qczx1248go","173"
"xs15_2560uh246","172"
"xs15_0g8k871zbc1","170"
"xs15_32qkzx34a6","170"
"xs15_gs252zpic","170"
"xs15_gjl8628cz1","169"
"xs15_352sgz0db","166"
"xs15_321fgc48c","164"
"xs15_8kai31e8zw1","164"
"xs15_xgs252z6a43","163"
"xs15_358616853","160"
"xs15_1784c32ac","158"
"xs15_3lk48cz056","158"
"xs15_31248gka53","157"
"xs15_354k8zcip","157"
"xs15_0ra246z643","156"
"xs15_3ia4zw1178c","156"
"xs15_32qczx11da","154"
"xs15_3loz32ak8","153"
"xs15_0178kcz6511","151"
"xs15_bdggma4zw1","151"
"xs15_8kk3123z065","150"
"xs15_035icz4a9o","149"
"xs15_32hv04a6","149"
"xs15_4apb8oz32","149"
"xs15_0i5t246z121","148"
"xs15_32qczxpic","148"
"xs15_ci52zw1248a6","148"
"xs15_g88e1e8z056","148"
"xs15_08p784cz321","145"
"xs15_178c2eg8o","144"
"xs15_25a84c0f9","142"
"xs15_32qbzx1248c","142"
"xs15_g8421e8z1256","142"
"xs15_0o4a53zc452","141"
"xs15_drz34ak8","140"
"xs15_252sgzy132ac","139"
"xs15_31ego8b5","139"
"xs15_32qkzx34ac","139"
"xs15_gjl8zpi6","139"
"xs15_4aq453z65","138"
"xs15_8kih3zx1156","138"
"xs15_g89f0ccz23","137"
"xs15_35iczx11da","135"
"xs15_w4s0c93z2521","134"
"xs15_wraa4zbd","134"
"xs15_0ggs2552z56","128"
"xs15_04ap56zca1","125"
"xs15_312460uh3","125"
"xs15_32q4gzx1078c","124"
"xs15_358gzwphe2","124"
"xs15_0g8ka23zbc1","123"
"xs15_g84213zdjo","122"
"xs15_0312kozca23","121"
"xs15_39c84czw253","121"
"xs15_03p68oz6221","120"
"xs15_0bt0652z32","120"
"xs15_25a4ozx34ac","120"
"xs15_4ap3zw12156","120"
"xs15_358gu248c","118"
"xs15_3pcz4ajo","118"
"xs15_gjlc2koz1","117"
"xs15_x8ka52zad11","117"
"xs15_08o6picz32","116"
"xs15_gs2453z1ac","116"
"xs15_0ok213zcip","115"
"xs15_31eoz4a9o","115"
"xs15_0321eozc8421","113"
"xs15_039cz4a5113","113"
"xs15_259m8628c","113"
"xs15_wkc32acz65","113"
"xs15_04ap3zoj6","111"
"xs15_ca168ozwca1","111"
"xs15_w8k8a52z6521","111"
"xs15_354c88gzxca1","110"
"xs15_g88c0f9z056","110"
"xs15_259m88czx23","108"
"xs15_31461ug8o","107"
"xs15_cahegoz023","107"
"xs15_8o0uh23z23","105"
"xs15_dj8gzx32ac","105"
"xs15_358gzwg0t6zw11","103"
"xs15_39c88czw256","102"
"xs15_0352sgz6413","101"
"xs15_354c32qk","101"
"xs15_8e12kozw643","101"
"xs15_cai3zmq1","101"
"xs15_25a8ozxc453","99"
"xs15_3pa4zw11da","99"
"xs15_4ap64k8zw121","99"
"xs15_g88b52zdb","99"
"xs15_178j146zx23","98"
"xs15_178ka2453","98"
"xs15_6ao8b5z32","97"
"xs15_jhkmz1w252","96"
"xs15_25a8ka4z0321","95"
"xs15_354k8zw122ac","95"
"xs15_wg8421egoz65","95"
"xs15_cp3z34ak8","93"
"xs15_g88bp46z23","93"
"xs15_0ghn8426z32","92"
"xs15_0j9cga6z121","91"
"xs15_32hu0oi6","91"
"xs15_69la8czw23","91"
"xs15_0g8ge13zbc1","90"
"xs15_2eg8oge13","90"
"xs15_358ge1da","90"
"xs15_0j9aczc93","89"
"xs15_3iab8oz023","89"
"xs15_25b88gzc8421","88"
"xs15_32qkzy032ac","88"
"xs15_8ljgzx25ac","88"
"xs15_g84213z178k8","88"
"xs15_0g84213z342sg","87"
"xs15_256o8zxo9a4","87"
"xs15_c8idioz023","87"
"xs15_dj8gzx34a6","87"
"xs15_c88a52zbd","86"
"xs15_drz342sg","86"
"xs15_0g8ka23zc96","85"
"xs15_25iczx115ac","84"
"xs15_3lc2koz32","84"
"xs15_woka23zdb","84"
"xs15_xg84215acz321","84"
"xs15_g853z125ak8","83"
"xs15_09v04acz32","82"
"xs15_0drz3ego","82"
"xs15_312kozy131e8","81"
"xs15_ggka23ck8z1","80"
"xs15_25b8o6426","79"
"xs15_358go8gka4","79"
"xs15_3h4e1e8z011","79"
"xs15_69jzwg9iczx1","79"
"xs15_0cp3zmdz11","78"
"xs15_17842tic","78"
"xs15_0ggo8a53z56","76"
"xs15_9v04a6z32","76"
"xs15_wo8a53zbd","75"
"xs15_8ljgzx34ac","74"
"xs15_ggka512koz1","74"
"xs15_0g8ge1daz23","73"
"xs15_0ggm93z12ko","73"
"xs15_358gz3lp1","73"
"xs15_35a8og8426","73"
"xs15_8k4r9iczw1","73"
"xs15_woge13zdb","73"
"xs15_2ego8ge13","71"
"xs15_wggo3tgz252","70"
"xs15_25a88czwbd","69"
"xs15_259m86246","67"
"xs15_32q4gzx125a4","67"
"xs15_6421560ui","67"
"xs15_wck8a52z2521","67"
"xs15_025ak8zad11","66"
"xs15_358gzw116ak8","66"
"xs15_bdz3115a4","66"
"xs15_bt0652z32","66"
"xs15_j96z11db","66"
"xs15_xok871zc93","65"
"xs15_0ci52sgz321","64"
"xs15_8ljgzx115a4","64"
"xs15_25a4ozxc952","63"
"xs15_0kq23z1qm","62"
"xs15_628q552z032","62"
"xs15_cq23123z32","62"
"xs15_0drz254ko","60"
"xs15_69q48cz321","60"
"xs15_39c88czw652","59"
"xs15_g84213z12pm","59"
"xs15_1784ozx34ac","57"
"xs15_xj96zg6dz11","57"
"xs15_0g88a52zol3","56"
"xs15_4a9jzx115a4","56"
"xs15_g853z121ego","55"
"xs15_025a88gzog8421","54"
"xs15_4ai30o4czx121","54"
"xs15_xok21e8z253","54"
"xs15_5b8ozwc453","53"
"xs15_31248go8gkc","51"
"xs15_1784ozx3453","49"
"xs15_312kozy1354c","49"
"xs15_drz122ak8","49"
"xs15_ok215a4z65","49"
"xs15_0252sgzc453","48"
"xs15_8ljgzx34a6","48"
"xs15_djozx31e8","47"
"xs15_4al9a4z321","46"
"xs15_8kk3146z065","46"
"xs15_gbdz1pl2","46"
"xs15_j96z5b8o","46"
"xs15_25a88cz6413","45"
"xs15_3iakgozw56","45"
"xs15_4a4o79ozx11","45"
"xs15_8k46picz11","45"
"xs15_32hu0og4c","44"
"xs15_g6pajoz11","43"
"xs15_gj12koz1243","43"
"xs15_gs24871z56","43"
"xs15_mp3zw31e8","43"
"xs15_03hik8zc96","42"
"xs15_0ggraa4z56","42"
"xs15_0ok213z4a9o","42"
"xs15_358gzy01248gkc","42"
"xs15_8kai3zx34a4","42"
"xs15_mp3zw354c","42"
"xs15_xg8k871z4a43","42"
"xs15_0kq23zpi6","41"
"xs15_0ok215a4z641","41"
"xs15_3pczw1pl2","41"
"xs15_j9a4zpi6","41"
"xs15_0g8k453zbc1","40"
"xs15_0ggs252z12ko","40"
"xs15_wok453zdb","40"
"xs15_03iak8zc452","39"
"xs15_17842sga6","39"
"xs15_321e8gzxbd","39"
"xs15_3lozj4cz11","39"
"xs15_wok21e8z6221","39"
"xs15_08o652sgz32","38"
"xs15_0g8gka52z343","38"
"xs15_25iczx11da4","38"
"xs15_31460uh23","38"
"xs15_69q453z32","38"
"xs15_c9jzw12ego","38"
"xs15_ol3zw32156","38"
"xs15_0j9c84cz321","37"
"xs15_354k8gzwbc1","37"
"xs15_cq23zrm","37"
"xs15_dbgzw12ego","37"
"xs15_g84213z11db","37"
"xs15_2ege1248go","36"
"xs15_31eozx121e8","36"
"xs15_g8e123zc93","36"
"xs15_0252sgz8e13","35"
"xs15_0cq23146z32","35"
"xs15_31ek13z311","35"
"xs15_c48c9jzx65","35"
"xs15_c842arzx65","35"
"xs15_0312koz31243","34"
"xs15_3213ia4zw65","34"
"xs15_db8ozbd","34"
"xs15_gbdzpia4","34"
"xs15_xgila4zc452","34"
"xs15_031i4oz4a521","33"
"xs15_0ggs2453z56","33"
"xs15_0o48a52z39c","33"
"xs15_c9jzw11da4","33"
"xs15_0ggc93z3kp","32"
"xs15_ghn83146z1","31"
"xs15_ghn842acz1","31"
"xs15_j96zc953","31"
"xs15_0g842ticz32","30"
"xs15_0o4871z3lo","30"
"xs15_3ia4zwd552","30"
"xs15_4aq3213z32","30"
"xs15_5b8ozy0178c","30"
"xs15_069jz8ka43","29"
"xs15_0g8im853z23","29"
"xs15_0j96z122ak8","29"
"xs15_1784260ui","29"
"xs15_6248ge1da","29"
"xs15_g8ge1e8z56","29"
"xs15_xggka23z4a52","29"
"xs15_0drzoja4","28"
"xs15_0g8gka23z343","28"
"xs15_0j9c826z321","28"
"xs15_25iczwc953","28"
"xs15_32qk8zdb","28"
"xs15_354215ako","28"
"xs15_xg8ka23z4a43","28"
"xs15_gs24871z146","27"
"xs15_wg84264213z65","27"
"xs15_0j5oz349go","26"
"xs15_178ki6zx65","26"
"xs15_32hu0628c","26"
"xs15_g842156zdb","26"
"xs15_0gjla4z1ac","25"
"xs15_25a88czwdb","25"
"xs15_3124628c4go","25"
"xs15_0j5o652z121","24"
"xs15_31248gzca511","24"
"xs15_3pczw1248a6","24"
"xs15_69m88czx56","24"
"xs15_j9cga6z121","24"
"xs15_065la4zca1","23"
"xs15_3542132qk","23"
"xs15_39m88czx56","23"
"xs15_8o652sgz32","23"
"xs15_gs25a4z1ac","23"
"xs15_xoge13zc93","23"
"xs15_xoka23zc93","23"
"xs15_025iczo8b6","22"
"xs15_0cp3zgb6z11","22"
"xs15_0kc3213z346","22"
"xs15_256o8gzy21248c","22"
"xs15_8ka23zw115a4","22"
"xs15_xok453zc93","22"
"xs15_06ak871z311","21"
"xs15_0g88a52z8k96","21"
"xs15_0ggo8b52z56","21"
"xs15_8ka9jzx1252","21"
"xs15_ck3123z643","21"
"xs15_cq23146z32","21"
"xs15_oe12koz056","21"
"xs15_032qk8zc93","20"
"xs15_0kc0f9z1226","20"
"xs15_25b8og8426","20"
"xs15_32hu06io","20"
"xs15_g853z1164ko","20"
"xs15_0ggc93zcip","19"
"xs15_31246248gkc","19"
"xs15_4al5ak8zx11","19"
"xs15_8k871zw115a4","19"
"xs15_ggwkq23z1243","19"
"xs15_wci52sgz311","19"
"xs15_03iacz6ip","18"
"xs15_0g88b5zol3","18"
"xs15_0ggdbzcip","18"
"xs15_0j9c84cz123","18"
"xs15_25icga6z023","18"
"xs15_8k453z3lo","18"
"xs15_8k9b8ozw56","18"
"xs15_ck312koz023","18"
"xs15_g8ka53z1ac","18"
"xs15_o4871acz23","18"
"xs15_rai3zx1ac","18"
"xs15_w9v04a4z311","18"
"xs15_x8k453zad11","18"
"xs15_04al5a4z311","17"
"xs15_069jzkq221","17"
"xs15_0oe123zc452","17"
"xs15_32q4gzx1254c","17"
"xs15_4ap3zrm","17"
"xs15_wg84213213z65","17"
"xs15_wok871zdb","17"
"xs15_0gs252zo9a4","16"
"xs15_25a84c84213","16"
"xs15_25icz69ko","16"
"xs15_25iczw11db","16"
"xs15_31248c48gkc","16"
"xs15_321ege123","16"
"xs15_4ai30f9z011","16"
"xs15_4ai3146zx56","16"
"xs15_6421eozwca1","16"
"xs15_c8idicz023","16"
"xs15_gbdzha6z11","16"
"xs15_mk4871z56","16"
"xs15_035a4ozc8421","15"
"xs15_0c88b5zc93","15"
"xs15_0o4a52z3lo","15"
"xs15_39cga6z321","15"
"xs15_4a9jzx11da","15"
"xs15_wdrzgb6z11","15"
"xs15_032arzok21","14"
"xs15_03hik8z25a4","14"
"xs15_178ka5123","14"
"xs15_3lozx35426","14"
"xs15_3lozx3pm","14"
"xs15_64213kczx65","14"
"xs15_64kb9czw23","14"
"xs15_8o6413z34a4","14"
"xs15_cp3z342sg","14"
"xs15_069jzgs243","13"
"xs15_1784ozxc952","13"
"xs15_32qbzx12ko","13"
"xs15_5b8ozx125a4","13"
"xs15_ol3zmdz11","13"
"xs15_wj96zmdz11","13"
"xs15_wo8b52zbd","13"
"xs15_x8k871zad11","13"
"xs15_05b88cz6413","12"
"xs15_08u16413z32","12"
"xs15_0drzmdz11","12"
"xs15_31ke13z65","12"
"xs15_39q453z32","12"
"xs15_3ihla4z32","12"
"xs15_3loz32qk","12"
"xs15_4a9jzx1qm","12"
"xs15_8kih3zx25a4","12"
"xs15_bdz311da","12"
"xs15_xg84215a4zca1","12"
"xs15_08o0uh23z32","11"
"xs15_0g84213z122qk","11"
"xs15_0g8go3tgz23","11"
"xs15_25a8421ego","11"
"xs15_25a84264213","11"
"xs15_2eg8421ego","11"
"xs15_2eg84c0f9","11"
"xs15_3ia4zw11da4","11"
"xs15_3pczw124871","11"
"xs15_4a40vh246","11"
"xs15_8e13kczw65","11"
"xs15_ggc48a52z56","11"
"xs15_wg84c84213z65","11"
"xs15_xg8426853z321","11"
"xs15_xgbq23zca1","11"
"xs15_03ia4oz65x11","10"
"xs15_252sgzol3","10"
"xs15_32q4gzx121e8","10"
"xs15_32qczwo9a4","10"
"xs15_3iakg8oz23","10"
"xs15_8ljgzx11da","10"
"xs15_c88b5zbd","10"
"xs15_g8421e8zdb","10"
"xs15_xg8og853zca1","10"
"xs15_031i4ozc4521","9"
"xs15_08ljgzog8421","9"
"xs15_1no31248c","9"
"xs15_25iczoja4","9"
"xs15_25iczw116413","9"
"xs15_cp3z122ak8","9"
"xs15_dj8gzx34ac","9"
"xs15_g853z1252sg","9"
"xs15_o4a52sgz23","9"
"xs15_wg8og84213z65","9"
"xs15_0g6p3z3kp","8"
"xs15_0gjl8zrm","8"
"xs15_0j9c826z123","8"
"xs15_25iczw1784c","8"
"xs15_25iczx1pl2","8"
"xs15_3586p3zx32","8"
"xs15_8u16426z32","8"
"xs15_0358gz8kq221","7"
"xs15_03ia4zoja4","7"
"xs15_03iaczmq1","7"
"xs15_31248gzy21248a6","7"
"xs15_6413kcz6421","7"
"xs15_69jzxhik8zx1","7"
"xs15_g88c93zc93","7"
"xs15_g8o6413z1ac","7"
"xs15_ggkq23z1ac","7"
"xs15_w64k871z6421","7"
"xs15_xg8426413zca1","7"
"xs15_0358gzoka221","6"
"xs15_0bdzad113","6"
"xs15_0ca9jzok21","6"
"xs15_0g8it246z23","6"
"xs15_0g8jdzmr","6"
"xs15_0gjl8zpic","6"
"xs15_0kc32ak8z32","6"
"xs15_1784215ak8","6"
"xs15_178k46z2521","6"
"xs15_25icggozx56","6"
"xs15_3146248c4go","6"
"xs15_358gzwo496z011","6"
"xs15_3lozx312ko","6"
"xs15_4ai31e8zw23","6"
"xs15_4ap6413z32","6"
"xs15_628c9jzx65","6"
"xs15_8k461aczw56","6"
"xs15_ci52zw124871","6"
"xs15_g84215a4z1252","6"
"xs15_g8jdzpic","6"
"xs15_ghn842sgz1","6"
"xs15_ol3zw32ak8","6"
"xs15_wghn84cz252","6"
"xs15_y0g853zggmdz1","6"
"xs15_0178k8zad11","5"
"xs15_03ihe8z6221","5"
"xs15_08o6413z69c","5"
"xs15_0ggs25a4z56","5"
"xs15_25a8og84213","5"
"xs15_25iczmdz11","5"
"xs15_354q93zx23","5"
"xs15_3lozx358go","5"
"xs15_3pa4zw1248go","5"
"xs15_3pczwhik8zw1","5"
"xs15_4a9la4z321","5"
"xs15_4aligzx4a52","5"
"xs15_6agc93z321","5"
"xs15_8kai3zx3426","5"
"xs15_8ljgzxpi6","5"
"xs15_g84213z5b8o","5"
"xs15_ggkc32qkz1","5"
"xs15_j9c871z23","5"
"xs15_kq23zw31e8","5"
"xs15_kq23zw354c","5"
"xs15_x8ka23zad11","5"
"xs15_xg8421egoz321","5"
"xs15_032qkzol3","4"
"xs15_0dbzad113","4"
"xs15_0g88b5z8k96","4"
"xs15_0ggdbz3kp","4"
"xs15_0ggo3tgz56","4"
"xs15_0ghn84cz56","4"
"xs15_0o4a52z8k96","4"
"xs15_178ka248go","4"
"xs15_25iczqm11","4"
"xs15_3146248gka4","4"
"xs15_3213kcz6421","4"
"xs15_358gz0g8k96zw1","4"
"xs15_358gzw116a8o","4"
"xs15_358gzy01248ge2","4"
"xs15_3ia4z122ak8","4"
"xs15_4a9jzxpi6","4"
"xs15_8ljgzx25426","4"
"xs15_bdggzw1012ko","4"
"xs15_drz122qk","4"
"xs15_ol3zw321e8","4"
"xs15_ra248goz23","4"
"xs15_xg84c3213z321","4"
"xs15_xg8o6413zca1","4"
"xs15_032ak8zad11","3"
"xs15_0ok21e8z6421","3"
"xs15_358gzg8k452z01","3"
"xs15_358gzw1162sg","3"
"xs15_39c88gzxbd","3"
"xs15_3lozwojd","3"
"xs15_4ai3zx124871","3"
"xs15_5b8ozx121e8","3"
"xs15_628s252z065","3"
"xs15_8kih3zx254c","3"
"xs15_bdggzw1248go","3"
"xs15_ci52z116246","3"
"xs15_mp3zw31246","3"
"xs15_oe1248cz056","3"
"xs15_032q48cz2521","2"
"xs15_03ia4zqm11","2"
"xs15_064k871zca1","2"
"xs15_08u16426z32","2"
"xs15_0ck3146z6221","2"
"xs15_0g0s252z3kp","2"
"xs15_0g8jdz6jo","2"
"xs15_0ggka23z12ko","2"
"xs15_1784215a8o","2"
"xs15_2eg88b5zw23","2"
"xs15_4a51248gzy41246","2"
"xs15_4ai3zwg9iczx1","2"
"xs15_6413kcz0ca1","2"
"xs15_8o651246z32","2"
"xs15_xg853z0mdz32","2"
"xs15_xkc0f9zca1","2"
"xs15_y4g853zxg8421z321","2"
"xs15_03ia4zmdz11","1"
"xs15_04ai3zo8b5","1"
"xs15_08kai3zc8421","1"
"xs15_09v04a4z65","1"
"xs15_0db8ozok21","1"
"xs15_0o4871z8k96","1"
"xs15_0ok21e8zca1","1"
"xs15_178421eg8o","1"
"xs15_25iczw5b8o","1"
"xs15_2eg84264213","1"
"xs15_2eg84c84213","1"
"xs15_31248a51246","1"
"xs15_31248gka246","1"
"xs15_31248go8b5","1"
"xs15_3146o8gka4","1"
"xs15_3213kcz0ca1","1"
"xs15_358ge1248c","1"
"xs15_4a51248gka4","1"
"xs15_641344og84c","1"
"xs15_8ljgzx1qm","1"
"xs15_cp3z122qk","1"
"xs15_g84213zc953","1"
"xs15_o8624871z23","1"
"xs15_wog84213zdb","1"
"xs15_xg853z0gb6z32","1"
"xs15_xg8o64213z321","1"
"xs15_xggka23zc452","1"
"xs15_y0g853z0cq1z32","1"
