"apgcode","occurrences"
"xs31_69b88bbgz69d11dd","56934"
"xs31_0ca178b96z69d1d96","2749"
"xs31_69b8b96z25t1t52zx1","1042"
"xs31_g886l5a8ozdd11dd11","538"
"xs31_4a9b8bbgz259d1dd","259"
"xs31_gj1u0u93zdlgf032","120"
"xs31_gj1u0o4czdlgf0f9","81"
"xs31_03hu0ooz4706iq2qic","67"
"xs31_gg0si52zdd0eiqb96","60"
"xs31_69b8b96z2ll553z0121","40"
"xs31_69b88bb8b96zx33033","39"
"xs31_g88bb8b96zc97079c","38"
"xs31_0mll2sgzra0v066z011","32"
"xs31_69b8baicz69d1dd","25"
"xs31_69b8b96z69f0f96","24"
"xs31_j1u0u1u0mmz11x1w346","22"
"xs31_259q4oa6z6a87078a6","20"
"xs31_651u0u156z0o5l871zw1","20"
"xs31_69b8bb88gzw69d1dd","19"
"xs31_178baa4z0mkkl3z32w23","18"
"xs31_ok4o0u1u0ok8z6a87011","15"
"xs31_069b8bbgz359d1dd","13"
"xs31_0gs2t5iz1qa2t543zw11","12"
"xs31_3lkmgmmggkcz3201w66","12"
"xs31_mm0u1v0ccz11078b6","11"
"xs31_02llmz0bq2qbz3210123","9"
"xs31_69b88c8a6z69d1d96","9"
"xs31_0ggmlligz34aaqaa43","8"
"xs31_69b88c0v18ozx5b87011","8"
"xs31_iu0u1lmz6a87078c","8"
"xs31_4a9baiczml55loz11","7"
"xs31_69b8b96z651311d96","7"
"xs31_g6t1e8gzdd0fhld","7"
"xs31_gj1u0o8zdlgf0fio","7"
"xs31_wml1e8gzgh2u1ddz1221","7"
"xs31_4a9f0f9gz259f0f9","6"
"xs31_69acwgz2lll55dz3421","6"
"xs31_g88bb8b96zc970796","6"
"xs31_gj1u0e93zdlgf033","6"
"xs31_0c9b8bq23z69d1dd","5"
"xs31_0g8ogka52sgz1qq2qic","5"
"xs31_0gillicz3kmiaa4z1221","5"
"xs31_2lligz346kk3zx123cko","5"
"xs31_3lkkl3zraaqa96","5"
"xs31_4a9e0e9a4z69d1d96","5"
"xs31_69b88br0rrzx3543","5"
"xs31_8e1t6z330f8b96zx33","5"
"xs31_cimkihe0eik8zwcik8","5"
"xs31_g88ehlmzdd1fge21","5"
"xs31_wg8kie0ehe0eik8z2543","5"
"xs31_2596o8zy0hab88gzx6b8711","4"
"xs31_39u0eikozw122622qic","4"
"xs31_3iaba96zw1pl3z3543","4"
"xs31_3lk453z3egv0rr","4"
"xs31_c88b96zw359e0u156zy311","4"
"xs31_cc0s2t3ob96z3543w1","4"
"xs31_g8e1lmzdlhf0e96","4"
"xs31_02lligz0344mk3zokc321","3"
"xs31_039u0u93z660787066","3"
"xs31_03lkmggkczwh8kicz2543","3"
"xs31_04a96z3llll56z32w23","3"
"xs31_04aq3ob5z6a87078a6","3"
"xs31_04s0s2mk453zc970743","3"
"xs31_06t1u0ooz255kjge2zx1","3"
"xs31_0caab8brz255ll2zx11","3"
"xs31_0cc0ca952z255ll2zw3443","3"
"xs31_0gjlkm2ocz346w1078a6","3"
"xs31_25b8bbgzo81v0743z011","3"
"xs31_3lkkl3z3460u1eozy111","3"
"xs31_3pmgmiczciq2qic","3"
"xs31_4a9b8bb8b96zx33033","3"
"xs31_651u0mmzmlld221z1","3"
"xs31_651u0o4ozy01pgf0f96","3"
"xs31_69acz699b996zx3596","3"
"xs31_69b88gz2lllldz346","3"
"xs31_69b8b96z03lkl3z03201","3"
"xs31_69ic0ck8gzx1169e1d96","3"
"xs31_6a8c9b88a53z6513113","3"
"xs31_6t1u0o8z1pgf0fio","3"
"xs31_ca2jaabgz330fgmd","3"
"xs31_cc0v1u0u156z3543w1","3"
"xs31_cilligoz0ggmia6z346","3"
"xs31_g2u0u1egmicz11w3543","3"
"xs31_g88bb8brz1259hld","3"
"xs31_g88e1t6zdlll5ozx11","3"
"xs31_g9f0f98gz1pl5lp1","3"
"xs31_gbb8bbgzo5l55dz011","3"
"xs31_ggxg08o653zhaalld11z11","3"
"xs31_mm0u1vg33z11078a6","3"
"xs31_x3lk453z3j0v0qrz011","3"
"xs31_xi5lmz65l5s3496zw11","3"
"xs31_0354kl3z3j0v06joz011","2"
"xs31_0354kl3z3j0v0qrz011","2"
"xs31_039u0u2sgz6a870743","2"
"xs31_03lk6iozckgf0fgkc","2"
"xs31_03lkkl3zgbaaa43z123","2"
"xs31_04aq3q96z6a87078a6","2"
"xs31_062s0si96z178f0eic","2"
"xs31_0660u1u066z69f0dd","2"
"xs31_06996z355d93zw651156","2"
"xs31_069is0c4ozca22ehld","2"
"xs31_0c9b8b9cz695303596","2"
"xs31_0g04a9b88czold1d553","2"
"xs31_0g8ehlmzra0v0643z011","2"
"xs31_0g8ehlmzrq0vge21","2"
"xs31_0g8g0gillmzqb8701w643","2"
"xs31_0g8ka96zra0v0uicz011","2"
"xs31_0g8ka9mggz1221078c1eic","2"
"xs31_0g8o6llmz3egnc1023","2"
"xs31_0gbb88gzra0v1qq1z011","2"
"xs31_0ggca9mggz320fgv0643","2"
"xs31_0ggx8o653zrq0v0bqzy011","2"
"xs31_0gilmzhaaaarz011dd","2"
"xs31_0gjlkljgz32qi60643","2"
"xs31_0ml1u066zg4v079cz11","2"
"xs31_0mm0u1v0cicz6430321","2"
"xs31_252s0si6zwdlgf0ca6","2"
"xs31_2560ui4ozciic0fgp1","2"
"xs31_2llm88gzraie1dd","2"
"xs31_2llmgg0g8gz346w1078bq","2"
"xs31_2llmggz01qq2qbzy21246","2"
"xs31_2llmggzra0s2qrz011","2"
"xs31_356o8gzy01252s0cczx8kc321","2"
"xs31_3lk4micz011078kozy4356","2"
"xs31_4ak81v0v1u0uizx11x1","2"
"xs31_62s0s2arz321ehld","2"
"xs31_651u0oozg8llaa6z1221","2"
"xs31_651u0u156z330f871","2"
"xs31_651u0u1lmzw178b43","2"
"xs31_699e0ep3z69d1dd","2"
"xs31_699mkk8gzx1oie1d96","2"
"xs31_69acz03llmge96zw1221","2"
"xs31_69b88a52z69d11dik8","2"
"xs31_69b88c1v079czx33032","2"
"xs31_69b88c2mk4ozx3597011","2"
"xs31_69b8b96z259d1dic","2"
"xs31_69b8bai3z69d1dd","2"
"xs31_69b8baq453z0311dd","2"
"xs31_69b8bb8raiczw2552","2"
"xs31_69b8brz69d1d4ko","2"
"xs31_69baaczx3h5u066zx321","2"
"xs31_69e0u1lmz69707421","2"
"xs31_69e0u1ticz697074","2"
"xs31_69mgmiczgs2qa6z1221","2"
"xs31_6a8c88brz259d1dd","2"
"xs31_6t1u06996z178ll8","2"
"xs31_8e1lmz33gv0qbzw1221","2"
"xs31_8e1t2oczw6b8706996","2"
"xs31_8e1t6z3j0v0rrz011","2"
"xs31_8e1v0jjz330fgld","2"
"xs31_8e1v0rrz3j0v4z011","2"
"xs31_8e1vgf123z330eik8","2"
"xs31_c88gogillicz31226066","2"
"xs31_ca9b8brz319lld","2"
"xs31_ca9f0ccz311dll96","2"
"xs31_caar0v1ooz178b43","2"
"xs31_cc0v9z178ngbqic","2"
"xs31_cimg6p7o79iczx10121","2"
"xs31_cimgehlmzx3470696","2"
"xs31_cimkkm1ra96z066w11","2"
"xs31_g88bbgzdd1dd1eic","2"
"xs31_g88c0c88b96z1255d553","2"
"xs31_g8ehlmz5t0fge3zw11","2"
"xs31_gj1u0e96zdlgf033","2"
"xs31_gj1u0u93zdlgf023","2"
"xs31_iu0u1lmz6a870743","2"
"xs31_ml1u0ehraik8z1221","2"
"xs31_ml1u0uikoz11078a6","2"
"xs31_o4c0c97ob96z0117871","2"
"xs31_oe1v0rhe0ehrz011","2"
"xs31_w259aczmm0u1d96z1221","2"
"xs31_w2lmgeiczg89aaq1z123","2"
"xs31_wbr0v1u0ooz6a87011","2"
"xs31_wok46164kozgs2qa6z1221","2"
"xs31_0178bb88gz69d1dl91","1"
"xs31_02596z69b9d96zw69ic","1"
"xs31_0259acw8ozoge1dll91","1"
"xs31_0259acwccz65130311d96","1"
"xs31_0259mkiczw6aacz65156","1"
"xs31_025akozgbaaaqaa4z123","1"
"xs31_02llmgmicz652w62ak8","1"
"xs31_039e0ei4oz359d1e91","1"
"xs31_039e0u1lmzc8710743","1"
"xs31_039u0o4kmicz6a870121","1"
"xs31_03hu066zgbaqaarz11","1"
"xs31_03hu0o4aiczckgf0346","1"
"xs31_03lk453z0bq0f871z321","1"
"xs31_03lkkljgz2542uge21","1"
"xs31_03lkkmgmicz8k96066","1"
"xs31_03lkmicz0haaqicz321","1"
"xs31_04a9bob96z69aric","1"
"xs31_04aikljgz6is0sia43","1"
"xs31_04ap7ob96z69aqic","1"
"xs31_062s0s2qb96z33034521","1"
"xs31_0651u0oozgbbgncz123","1"
"xs31_0699eg8oz8e130321079c","1"
"xs31_0699egmmzcik870643","1"
"xs31_069b88a6zo81v0796z011","1"
"xs31_069b88cz2egmd11d96","1"
"xs31_069b88czjhld1d96z1","1"
"xs31_069b88gz069l91zciq226","1"
"xs31_069b8b52zo8bl596z011","1"
"xs31_069b8b96z4a97079a4","1"
"xs31_069b8b96z4a97079k8","1"
"xs31_069b8bbgz311dlld","1"
"xs31_069b8bbgz31p55p1zx11","1"
"xs31_069b8bbgz355d55d","1"
"xs31_069b8brzm2s079cz11","1"
"xs31_069bo3qicz4a6078a6","1"
"xs31_069e0u2sgzci970743","1"
"xs31_069r2qbz6a87078a6","1"
"xs31_06a8c4o0ehrziu06511","1"
"xs31_06ic0ca96zojc1d953","1"
"xs31_06t1e88gzok4dhd543","1"
"xs31_08e1f871z2ll553z1221","1"
"xs31_08e1t2kmiczc970741","1"
"xs31_08kiab8b96zckgf033","1"
"xs31_08u1u08kcz4ab8b6z033","1"
"xs31_08u1u8zcngmdz4aa6","1"
"xs31_09f0v1ooz25530eia4","1"
"xs31_09v0v9zra961696","1"
"xs31_0c4o0oid2koz6a8706ac","1"
"xs31_0c88bb8oz2llld11z32","1"
"xs31_0c88brz69b8b6z6952","1"
"xs31_0c88c48ge952z255d5521","1"
"xs31_0c93z2ll5lmz3430343","1"
"xs31_0c9baacz69d1dd113","1"
"xs31_0ca2bob96z699ric","1"
"xs31_0ca52z255dhqb88gzy4343","1"
"xs31_0ca96z2lll2z12egnc","1"
"xs31_0ca96z699d996z033033","1"
"xs31_0ca96z69d5ll2z03543","1"
"xs31_0ca970brz69d11dd","1"
"xs31_0ca9e0eik8gz6952y13452","1"
"xs31_0ca9fgkcz25530fgkc","1"
"xs31_0ca9lmz25t1ei96zx11","1"
"xs31_0ca9lmz6t1fge3zw11","1"
"xs31_0ca9ngc453z6515aic","1"
"xs31_0caab88a52z69d1d96","1"
"xs31_0caab8brzc97079c","1"
"xs31_0caab96z2ll553z3421","1"
"xs31_0caab96z699707996","1"
"xs31_0caaba952zad1f871","1"
"xs31_0caabp6ge96z2596w11","1"
"xs31_0caar1u8z69d1mq1","1"
"xs31_0caar4koz25521eiic","1"
"xs31_0cc0ca952z25t1dp3zx11","1"
"xs31_0cc0f9gz25t1fgf2zx11","1"
"xs31_0cc0s2u0e952zoie0321","1"
"xs31_0ciab8b96z622qb96","1"
"xs31_0cimge1diczgs2qic","1"
"xs31_0ckgo0u1jgz6aik8w12452","1"
"xs31_0g06t1u08oz3430fgld","1"
"xs31_0g08ehbqiczol55lo","1"
"xs31_0g08o1v0f96z8lld221","1"
"xs31_0g88bb8b96zrq23033","1"
"xs31_0g88bbgzra0v1qq1z011","1"
"xs31_0g88bbo7picz6b871","1"
"xs31_0g88e1lmz345dhd543","1"
"xs31_0g88e1t6z345lll8zw32","1"
"xs31_0g88ehlmzol5d96221","1"
"xs31_0g88geht2sgzg5t074z11","1"
"xs31_0g88m5is0ggz8lldy03443","1"
"xs31_0g8e1t6zol5c1f871","1"
"xs31_0g8e1u0u1eoz8ld11x11","1"
"xs31_0g8eh5eg88gzc45d4ko011","1"
"xs31_0g8ehlmge96z34303421","1"
"xs31_0g8ehlmzqr0vge21","1"
"xs31_0g8k4o1v0cicz6b870121","1"
"xs31_0g8ka96z1221ehp3s4ozy51","1"
"xs31_0g8ka96zhaa98gz1qq321","1"
"xs31_0g8ka96zhaap8gz122qq1","1"
"xs31_0g8ka96zrq0vge2ko","1"
"xs31_0g8o6llmggz12210122qq1","1"
"xs31_0gbaac0cia4z345d9311","1"
"xs31_0gbb88gz345dhv078c","1"
"xs31_0gbb8b96z12lll2zw1221","1"
"xs31_0gbb8b9icz230ehld","1"
"xs31_0gbb8brzo5l55dz011","1"
"xs31_0gbr0v1qb96z3421011","1"
"xs31_0gg03p6g0g8oz34430fgld","1"
"xs31_0gg0696z345llld1e8zx1","1"
"xs31_0gg06t1e8gz320fgn871","1"
"xs31_0gg08e1t2sgz349d1dd","1"
"xs31_0gg0s2the0eicz121078c","1"
"xs31_0gg2u0696z345kldz0643","1"
"xs31_0gg3iab8b96z34303453","1"
"xs31_0ggc88b96z3egf1d93","1"
"xs31_0ggm5hegmicz1245c321","1"
"xs31_0ggm5hegmicz34430343","1"
"xs31_0ggm96z1qa2s0s4zw11xdb","1"
"xs31_0ggm96z3kmiaik8z3443","1"
"xs31_0ggmkkmhe0e96z32w66","1"
"xs31_0ggml1e8gz3462alld","1"
"xs31_0ggmlhe0eicz346w6511","1"
"xs31_0ggmlhe0o8z1226y0123cko","1"
"xs31_0ggmll2zhaaqaarz11","1"
"xs31_0ggmllmz32qi6069a4","1"
"xs31_0ggmllmz34606430eio","1"
"xs31_0ggo0u1t2sgzrq22611","1"
"xs31_0ggoie0e952z34622qic","1"
"xs31_0ggwo8ge952z32gv0rq1","1"
"xs31_0ggy1g8o653z32gv0rq221","1"
"xs31_0gil96z345cis0si96","1"
"xs31_0gilligoz1aq2qicz023","1"
"xs31_0gilligz32qq2qi96","1"
"xs31_0gilligzra0s2qq1z011","1"
"xs31_0gj1u0o4a4z6430fgld","1"
"xs31_0gjl453zbq2q96z3421","1"
"xs31_0gjlkaacz346w311d96","1"
"xs31_0gjlkkoz346066079ic","1"
"xs31_0gjlmggkcz1qq2qic","1"
"xs31_0gjlmggzhaaqaaq1z11","1"
"xs31_0gs2p78brz12egna","1"
"xs31_0gs2s0siarz12egnc","1"
"xs31_0gs2t1eoz3egn85d","1"
"xs31_0gs2uge13zciq2qic","1"
"xs31_0gwmlhe0eik8zo5l91z01","1"
"xs31_0iu0e96z1iu0v9z01221","1"
"xs31_0iu0u2cgc453z6430346","1"
"xs31_0j9egmicz8l5t066zw1","1"
"xs31_0jhu0ooz122qq2qia4","1"
"xs31_0jj0v1u0ok8z3430343","1"
"xs31_0mkljgf96z346069c","1"
"xs31_0ml1e8z349gv1oka6","1"
"xs31_0ml1eozra0v1ok8z011","1"
"xs31_0ml1u0ooz8ll8706a4","1"
"xs31_0mlhe88e13z346079c","1"
"xs31_0mlhe8gz32gv079ko","1"
"xs31_0mlhu0eicz1qaa611","1"
"xs31_0mlhu0u156z1qq221","1"
"xs31_0mligz3iaaq1z8lld","1"
"xs31_0mljgz8lmge3zcia6","1"
"xs31_0mlligogkcz122qia6","1"
"xs31_0mllmggz32w66078kic","1"
"xs31_0mm0u1u0mmz3421x1243","1"
"xs31_0mmggm952z1qq2qic","1"
"xs31_0mmgm9bo8a6z346065","1"
"xs31_0o4c0ci96zw1p5l8z69521","1"
"xs31_0o4o0u156zdd0fgld","1"
"xs31_0o4o0uh3z5t0v078czw1","1"
"xs31_0o8wci96zwphldz178a6","1"
"xs31_0oe1t6gz8o1vg5dz23","1"
"xs31_0ogiljgz4aaq22qb8o","1"
"xs31_0ok2u0696z4aaa952zx33","1"
"xs31_0ok4o0ehrzciu0rq","1"
"xs31_0ok4o0u1diczcia43032","1"
"xs31_0ok4riabgz643y0178a6","1"
"xs31_0okie0e96zciq2qic","1"
"xs31_0okie0ehmk4oz4aa6y111","1"
"xs31_0okie0u1diczca26221","1"
"xs31_0okkm1t6z4aaaahzx321","1"
"xs31_0okkmge13zciq2qic","1"
"xs31_0okko0u93zciq2qq1","1"
"xs31_0oo0u1diczciu0rq","1"
"xs31_0oo0u1diczciu0vi","1"
"xs31_0rb8fhozo81v066z011","1"
"xs31_178b9aczw355d1d96","1"
"xs31_178r2qcz6a87078a6","1"
"xs31_1no3tgz32qq2qr","1"
"xs31_252s0s4oz35430fgld","1"
"xs31_25960uhe0ehf0f9","1"
"xs31_2596o8gz0gg3u0rqz3421","1"
"xs31_2596o8zcc0f827079a4","1"
"xs31_259ab8baiczw3303lo","1"
"xs31_259acy0g84k8zx65130fgp1","1"
"xs31_259acz4a9llll2zx1221","1"
"xs31_259e0ehe0e970796","1"
"xs31_259m88gzy0har0ehrzy0121","1"
"xs31_259mgmmgmiczx66066","1"
"xs31_25a8cw8o653z0ad1dd11","1"
"xs31_25acz3lllll2z01w643","1"
"xs31_25ic88b96z6430f953","1"
"xs31_25is0s2s0sia4zy047074","1"
"xs31_25t248gzwo55t2qrzx11","1"
"xs31_2ege9jwo4kozx178b43","1"
"xs31_2ll2c88brz6430354c","1"
"xs31_2ll2s0s2s0sicz3421x1","1"
"xs31_2ll2s53z34bc1d96","1"
"xs31_2ll6gzmkllk3z1w643","1"
"xs31_2ll6o8gz349gv0qr","1"
"xs31_2lla88gzraal59cz011","1"
"xs31_2lligwcia4z12egld11","1"
"xs31_2lligz3201cjo7pic","1"
"xs31_2llm88b96z346079c","1"
"xs31_2llm88czhaaq553z011","1"
"xs31_2llmggmicz34622ak8","1"
"xs31_2llmggo4oz34622qq1","1"
"xs31_2llmgmk4oz122qq221","1"
"xs31_2llmz0p8ab88gzw17871","1"
"xs31_2llmzhaaabgz17871","1"
"xs31_2llmzra2s3qicz011","1"
"xs31_2lm0u1v0si96z121011","1"
"xs31_2lmgmikoz124622qic","1"
"xs31_2lmgml2zhaq2qq1z01","1"
"xs31_2lmgmmzraaqa9o","1"
"xs31_312kmgmmzwhaaq221zw121","1"
"xs31_3146p7ob96z0178b6","1"
"xs31_31e88b96z02ll553zw121","1"
"xs31_31egmicz4aaa4zx315ac","1"
"xs31_31eoz04ab8b96zw4a953","1"
"xs31_31eozw1iiq3qicz0c96","1"
"xs31_33gv1aczxojd1d96","1"
"xs31_33gv1oggmiczx34aa6","1"
"xs31_33gv1s6zwcngf033","1"
"xs31_354c5j08oz255d11dd","1"
"xs31_354kl3z0gglmz32w69ic","1"
"xs31_354kl3zo44d5oz011dd","1"
"xs31_354kl3zx1078kozy2ca22ac","1"
"xs31_354kmk453zw320470796","1"
"xs31_354ljgz8e1u2arzx121","1"
"xs31_354ljgzw1248n4ozy312596","1"
"xs31_354ljgzw32qa1u0oozy111","1"
"xs31_354mgm453zwhaaarzw11","1"
"xs31_354pb88gz6521ehld","1"
"xs31_3560u1v0rrzx3543","1"
"xs31_356o8gzrb0v0qrz011","1"
"xs31_358go8gzciq2qid552","1"
"xs31_35aczw311dis0s2aczy532","1"
"xs31_35akgoggzx6aiq2tic","1"
"xs31_35ao4koz06430eiozy4356","1"
"xs31_35is0ggzcc0v0ppz0643","1"
"xs31_35is0s2aczx345303552","1"
"xs31_39e0e93z69d1d553","1"
"xs31_39e0o4koz255d1eia4","1"
"xs31_39e0u1u0ooz0178b43","1"
"xs31_39e0uik8z03pai26zx121","1"
"xs31_39mggmmzg4q22qq1z11","1"
"xs31_39u0u156z0qb0t5zw11","1"
"xs31_3lk688gwggz32019lkb221","1"
"xs31_3lkkl3z12kmk56zw1023","1"
"xs31_3lkkl3z320147079ic","1"
"xs31_3lkkljgzraa60643","1"
"xs31_3lkl3zrq2qbzx346","1"
"xs31_3lkm0mmz34430fgkc","1"
"xs31_3lkmggozrq2qia6","1"
"xs31_3lkmgmaz1qq2qic","1"
"xs31_3lkmicggz12egf0343","1"
"xs31_3lkmk48gz12268d5lo","1"
"xs31_3lkmki6z1qq22696","1"
"xs31_3lkmz3egf02596zx113","1"
"xs31_3lmgmicz01c8a6z02553","1"
"xs31_3pe0u2g8ozwdd1e96","1"
"xs31_3pmgmmzg6q2qq1z11","1"
"xs31_4a60u1lmzx178f0cic","1"
"xs31_4a60u1lmzxdd0fgkc","1"
"xs31_4a60u1t2sgzxdbw12452","1"
"xs31_4a9b8b96z6t1t52zw1","1"
"xs31_4a9baaczx35970sia4","1"
"xs31_4a9eg88gz69f0fgld","1"
"xs31_4a9egmiczx1qaaqic","1"
"xs31_4a9mgmis0sia4zx1w643","1"
"xs31_4ad1u0oozx230eiozy5356","1"
"xs31_4aik8g0gjligkczxc8701w1","1"
"xs31_4s0caabaiczwd59d11","1"
"xs31_4s0v1u8z1787078a6","1"
"xs31_651u08ozwp90v064kozx11","1"
"xs31_651u0ehv0rrz0321","1"
"xs31_651u0ehv0vh23zw11","1"
"xs31_651u0mmzw110147ob96","1"
"xs31_651u0mmzw178f0cia4","1"
"xs31_651u0o44miczw178b43","1"
"xs31_651u0o4ozw1789qa952","1"
"xs31_651u0o4s0cczw1pgf032","1"
"xs31_651u0o8z31kngbqz032","1"
"xs31_651u0oozrr0raa6","1"
"xs31_651u0u156zrb87011","1"
"xs31_651u0u156zw110178kic","1"
"xs31_651u0u1diczw1pgf2","1"
"xs31_651u0u93zw1101230fho","1"
"xs31_651u0uiz35430fgkc","1"
"xs31_651u0uiz3j0v056z011","1"
"xs31_651u8w8ozckggld11z066","1"
"xs31_660u93zbr0ra4z3421","1"
"xs31_660uhmk4oz2530eio1","1"
"xs31_6960u1v0rrzx3543","1"
"xs31_6960u93ggzy2dlgf033","1"
"xs31_696o6p3sj96zw11074","1"
"xs31_69960g4s0sicz0355d11","1"
"xs31_69960u2gzy0g8l54kozx3421","1"
"xs31_6996zmllllmz1w1023","1"
"xs31_699e0e996zwml552zw11","1"
"xs31_699egmiczx34aaqic","1"
"xs31_69a4oz0rb0v0rrzw11","1"
"xs31_69a4z2llllicz32w66","1"
"xs31_69abaarz69d1dd","1"
"xs31_69ac0caicz69d11dd","1"
"xs31_69acz0355q88m996zy1121","1"
"xs31_69acz03llmggzw122qq1","1"
"xs31_69aczi5t1t5iz11x123","1"
"xs31_69aczml5d952z03453","1"
"xs31_69aczmllll3z1w643","1"
"xs31_69ak8gzx12ib4k8zy08lld","1"
"xs31_69ak8gzx1qa1u0e96zy1121","1"
"xs31_69ak8gzxhaabgzw343w1156","1"
"xs31_69b871aczx355d553","1"
"xs31_69b871s6z69d1dd","1"
"xs31_69b88a6z0rb0v9zw1221","1"
"xs31_69b88a6z255dhf0cc","1"
"xs31_69b88a6zw6519e0eik8","1"
"xs31_69b88bb8brzx3553","1"
"xs31_69b88bbo7piczx33","1"
"xs31_69b88c2mz69d59d11","1"
"xs31_69b88c2s0cczw6511dd","1"
"xs31_69b88c2s0siczw69d11","1"
"xs31_69b88c4ozx3597079a4","1"
"xs31_69b88ci96z69d1dd","1"
"xs31_69b88ciczwmlhhz032w23","1"
"xs31_69b88cz259d9jzy03496","1"
"xs31_69b88czo4id55d96z01","1"
"xs31_69b88e13z25t1t52zx1","1"
"xs31_69b88go4oz69d1eio1","1"
"xs31_69b88gwo4kozx320fgnc","1"
"xs31_69b88gzciqb87069a4","1"
"xs31_69b88q59e0eik8zx321","1"
"xs31_69b8b96z03lkl3z01221","1"
"xs31_69b8b96z03llmzw1243","1"
"xs31_69b8b96z255lmzw3421","1"
"xs31_69b8b96z259d1dio","1"
"xs31_69b8b96z6519lp13","1"
"xs31_69b8b96z69d11dio","1"
"xs31_69b8b96zw69d1132ac","1"
"xs31_69b8b96zx359e0eic","1"
"xs31_69b8b96zx3h5u0oozy011","1"
"xs31_69b8b96zx3lll96zy01","1"
"xs31_69b8b9a4oz08e1dd11","1"
"xs31_69b8b9a4z69d1d93","1"
"xs31_69b8b9a4z6t1t52zw1","1"
"xs31_69b8b9icz69d1dd","1"
"xs31_69b8baa4zciqb871","1"
"xs31_69b8baabq23zw6513","1"
"xs31_69b8bai3z6519ll8","1"
"xs31_69b8baicz0311ldz0321","1"
"xs31_69b8bb88gz6511dd11","1"
"xs31_69b8bb8brzx359a4","1"
"xs31_69b8bb8oz039d1dd","1"
"xs31_69b8bb8oz255ll2zx11","1"
"xs31_69b8bbgz2ll55dz011","1"
"xs31_69b8bbgz6519lld","1"
"xs31_69b8bbgzg88baq1z123","1"
"xs31_69b8bbgzo4id55dz01","1"
"xs31_69b8brz255l5kczx11","1"
"xs31_69b8f1u0eiozx33032","1"
"xs31_69b8jdz69d1eiic","1"
"xs31_69b8nhe0eioz6513","1"
"xs31_69baab9czx359d113","1"
"xs31_69baabgz6511dll8","1"
"xs31_69baicz651ui2ako","1"
"xs31_69bo7p6gu156zx123","1"
"xs31_69bo7p6k4ozx4a9611","1"
"xs31_69bo8gu1ug8ob96","1"
"xs31_69bobbgzwmk45lozw11","1"
"xs31_69bqikozciaai26zw11","1"
"xs31_69e0u1lmz6970743","1"
"xs31_69e0u1v0ciczx230346","1"
"xs31_69eg6k9bo3qiczx121","1"
"xs31_69egmmggmiczx56066","1"
"xs31_69ic88g2u0oozx178ld","1"
"xs31_69icxo4czx19v0f9zx321","1"
"xs31_69is0s2qb96zw66074","1"
"xs31_69is0s4zw66078bqic","1"
"xs31_69is0s4zw6aar0rr","1"
"xs31_69jqikozw6aaq22ac","1"
"xs31_69la88b96zwo5l913zx1","1"
"xs31_69mk1v079iczx3453","1"
"xs31_69ngn96zxca2acggzy4121","1"
"xs31_6a88b9e0eicz651156","1"
"xs31_6a88baabgzw69d1dd","1"
"xs31_6a88baakozc97079c","1"
"xs31_6a88bb88gz6519ll91","1"
"xs31_6a88bb88r9a4zx3596","1"
"xs31_6a88bb8oz69d5lp1","1"
"xs31_6a88bbo7picz2553","1"
"xs31_6a8chf033z65122qic","1"
"xs31_6a8ob2aczy0c93032qr","1"
"xs31_6akghn8brzw6aa611","1"
"xs31_6is0s2arz3egmd11","1"
"xs31_6s1vg35a4zdlge21","1"
"xs31_6t1688gzw1pl5lozy4352","1"
"xs31_6t1e88gzckll55dzx1","1"
"xs31_6t1u0o8gz39c32qq1","1"
"xs31_6t1u0o8wciczw1w8ll91","1"
"xs31_6t1u0o8zdd0fgna","1"
"xs31_8e13z359b8b96zy03552","1"
"xs31_8e1dmzwgg2v0ciiczw1221","1"
"xs31_8e1f8bbgz311d55d","1"
"xs31_8e1f8brz319lld","1"
"xs31_8e1v0rrz358f0cc","1"
"xs31_8e1v0si52z330fgkc","1"
"xs31_8e1v0v9z358bahzy011","1"
"xs31_8e1vg32acz330fgkc","1"
"xs31_8ehf8b9a4zwhaarzx11","1"
"xs31_8kic8iege1ege2zx343","1"
"xs31_8kkm0u1lmzx1470125a4","1"
"xs31_8kkm0u1t6zx34303453","1"
"xs31_8kkm1mk4ozx347065033","1"
"xs31_8kkmhf8brzx6a871","1"
"xs31_8kkmp3zx6a88czx651156","1"
"xs31_8o0u156z23cjs3pm","1"
"xs31_8o0u156z3egv1oka4","1"
"xs31_8o0u156zar0vg33z23","1"
"xs31_8o0u1aczar0vg33z23","1"
"xs31_8o0u1lmz0habo743zw11","1"
"xs31_8o0u1lmzqb0v056z011","1"
"xs31_8o0u1lmzqb0v065z011","1"
"xs31_8o6hf8brz230f871","1"
"xs31_8o6p7ob96ziv074","1"
"xs31_8u1j8brz34alld","1"
"xs31_8u1u0u1lmz01221w34a4","1"
"xs31_8u1v0jjz320fgld","1"
"xs31_9f0v1eoz330fgb6","1"
"xs31_9v0v1ooz23gjka6zw1","1"
"xs31_c4o0ehikmicz321xcic","1"
"xs31_c84c88brz330fhld","1"
"xs31_c84s3p6gz3543w11d96","1"
"xs31_c88b96z330fho4oge2","1"
"xs31_c88b96zw359hv0s4ozy51","1"
"xs31_c88baabgz355d1dd","1"
"xs31_c88baabgz359d1dd","1"
"xs31_c88bb88brzwrb871","1"
"xs31_c88bb8rbgzw35acx56","1"
"xs31_c88c88brz311dlld","1"
"xs31_c8allmz35t2aq1zx11","1"
"xs31_c97079a4ozw69d1dd","1"
"xs31_c9b88bbgz39d11dd","1"
"xs31_c9b8bdz3303123qic","1"
"xs31_ca178b96z355d553","1"
"xs31_ca1v079icz330fho","1"
"xs31_ca1v0jjz330fgld","1"
"xs31_ca1v0v18kicz330321","1"
"xs31_ca2s0s253z330fgld","1"
"xs31_ca2s0s453z330fgld","1"
"xs31_ca2s0sie0e952z3543","1"
"xs31_ca970v18oz311d9611","1"
"xs31_ca9b88gz355llldzx1","1"
"xs31_ca9b8baicz06511dd","1"
"xs31_ca9b8bdz355d553","1"
"xs31_caab8b96z330f953","1"
"xs31_caab8baa4z355d93","1"
"xs31_caab96z31pl5d96","1"
"xs31_caakl3z178ngf033","1"
"xs31_caakl3z355kihzw32023","1"
"xs31_caar0rdz3543si3","1"
"xs31_caar1qb96z358b6","1"
"xs31_caar4koz354cgf0cc","1"
"xs31_cc0s2arz3543032qic","1"
"xs31_cc0v1eozwo5l54kozx11","1"
"xs31_cc0v1u066z330f871","1"
"xs31_cc0v1u0ooz39d1cb","1"
"xs31_cic0qmggm952zw178a6","1"
"xs31_cie0u1v0ciiczx23032","1"
"xs31_ciis0s2qb96zwca611","1"
"xs31_cillmz06aaqbgzy2346","1"
"xs31_cimg6p7ob96zx3452","1"
"xs31_cimge2s0si96zx3453","1"
"xs31_cimge996zg88r453z11","1"
"xs31_cimgehe8zx3430359a4","1"
"xs31_cimgehegmiczx12543","1"
"xs31_cimggml1eozx6aa611","1"
"xs31_cimggoie0e952zwcia4","1"
"xs31_cimgm96zx6aie0eio","1"
"xs31_cimgmlhe0e952zx66","1"
"xs31_cimgmlhe8gzx6aa611","1"
"xs31_cimgmll2zx6aa61ac","1"
"xs31_cimgmmggm96z4aa6w1","1"
"xs31_cimgmmgu156zwca26","1"
"xs31_cimk5r8jdzx34ba4","1"
"xs31_cimkkl3zx6a870796","1"
"xs31_ciqb9a4zy13h5u066zy211","1"
"xs31_ciu0u1u0ei4ozx3421x1","1"
"xs31_ckgo2u0u156z06aa611","1"
"xs31_ckgoie0ehf0f9zx66","1"
"xs31_cq1u0u1lmz01221w34a4","1"
"xs31_db0v1qb8oz178b6","1"
"xs31_g03pmzdd1eiqb96","1"
"xs31_g08u1v0rrz178b43","1"
"xs31_g0ad1e8zdlld1d96","1"
"xs31_g31e808ka6z11dd1dl8","1"
"xs31_g6t1e8gzdlgf1dd","1"
"xs31_g84213wggzdd0ehv07421","1"
"xs31_g84o0u156zdd0fgld","1"
"xs31_g84s0f9zdlgf0f96","1"
"xs31_g84s0s253zdd0fgld","1"
"xs31_g8861vgf1e8zdd113","1"
"xs31_g88b96z8l5lll96zw11","1"
"xs31_g88b9mggzdlk970643","1"
"xs31_g88bb8b960uiz123033","1"
"xs31_g88bb8bbgz1109f0f9","1"
"xs31_g88bb8bbgz12pn8311","1"
"xs31_g88bb8bbo8a6z123033","1"
"xs31_g88bjozdd1eiqaa4","1"
"xs31_g88bp6k4oz1230fgld","1"
"xs31_g88c0qm0e93zc9530346","1"
"xs31_g88c0s2qb96z110ckld","1"
"xs31_g88c2c88b96z1230f953","1"
"xs31_g88c2t52zdlll5ozx11","1"
"xs31_g88cimgm9jz1101qq221","1"
"xs31_g88eh5mggz1230fgf023","1"
"xs31_g88ehjzdlhf0ejo","1"
"xs31_g88ehlmzd5hv0643","1"
"xs31_g88hfg7p8z011w3470696","1"
"xs31_g88m5p6gmicz11078701","1"
"xs31_g88mkljgzdd0fgc221","1"
"xs31_g88ml2z9v0v0cicz0121","1"
"xs31_g88mllmzd5gv0643","1"
"xs31_g89f0cczhhld1d96z1","1"
"xs31_g8e1dagzg5t178b6z11","1"
"xs31_g8e1dmz0dd1da2596","1"
"xs31_g8e1lmzo5l55c96z011","1"
"xs31_g8e1u08ozdd1fgld","1"
"xs31_g8e1v0rrz0dl58gzx11","1"
"xs31_g8ehlmzdlgf0e96","1"
"xs31_g8kie0ehikoz122acy066","1"
"xs31_g8kkm96zhaq2qq23z01","1"
"xs31_g8o0oggm952z1qq2qic","1"
"xs31_g8o0u93z123cjkb2ac","1"
"xs31_g8o1f8jdz1qa2t5zw11","1"
"xs31_g8o6p2s0ggz123cjo01243","1"
"xs31_gadhe88gzdlgf0f9","1"
"xs31_gbaa4ozdl5p1zw12596","1"
"xs31_gbaa4ozdllp1z4aa6","1"
"xs31_gbb88baa4zdlh953","1"
"xs31_gbb88gzdd1fgv066","1"
"xs31_gbb8b96z0dl1156z321","1"
"xs31_gbb8b96zdl59h3zw11","1"
"xs31_gbb8b96zo55t246z011","1"
"xs31_gbb8b96zo5l553z0121","1"
"xs31_gbb8b9a4zdd1djo","1"
"xs31_gbb8b9iczdd11dd","1"
"xs31_gbb8bb8oz19lld11","1"
"xs31_gbb8brzd55l5ozx11","1"
"xs31_gbb8f1u06996z123x11","1"
"xs31_gbb8f1u06a4z017871","1"
"xs31_gbb8fhe0eik8z12311","1"
"xs31_gbb8jdz1255q2mzy1123","1"
"xs31_gbbobbgz5t2aq1zw11","1"
"xs31_gg0s2ll2z1pgf0fgkc","1"
"xs31_gg2u0u156z1pgf0dd","1"
"xs31_ggc970vhe0eicz0346","1"
"xs31_ggmllmzhaaaa43z123","1"
"xs31_ggwo4aab96zpgf03453","1"
"xs31_ggxmmgu156zpgf0346","1"
"xs31_gilmgu1u066z1226221","1"
"xs31_gj1u08oz5t0v0rqzw1","1"
"xs31_gj1u0ehv0rrz1221","1"
"xs31_gj1u0mmz1pgf03496","1"
"xs31_gj1u0o4czdd0fgld","1"
"xs31_gj1u0o4ozpie1ehp","1"
"xs31_gj1u0o8zh98f0fioz11","1"
"xs31_gj1u0uizdl0v074zw1","1"
"xs31_gj1ugmiczdd0eik8","1"
"xs31_gjl453z1iu1e8zx3552","1"
"xs31_gs2t1e8zhaar453z11","1"
"xs31_gs2t1u06ak8z6a87011","1"
"xs31_gs2t1u0o8a6z6a87011","1"
"xs31_gs2u0t3on1e8zx343","1"
"xs31_gw3lk6o8gzdlhe2101221","1"
"xs31_gwcaabqiczdd1d96","1"
"xs31_j1u06ic0siicz11x1156","1"
"xs31_j1u0o4qa4z11w34706ac","1"
"xs31_j1u0tb079icz11w346","1"
"xs31_j1u0u93g88gz11wc97011","1"
"xs31_j960u2sgzdd1d543","1"
"xs31_mc1v0vhe0e93z121","1"
"xs31_md1e8gzdlhf032ac","1"
"xs31_ml1e88czhild1156z1","1"
"xs31_ml1u0ehe0eik8z1221","1"
"xs31_ml1u0u1e8z11078b6","1"
"xs31_ml1u0u2s0qmz1221011","1"
"xs31_ml1u0uh3z56078a6","1"
"xs31_mmgmicggm96z1226221","1"
"xs31_o4c0caabqicz0117871","1"
"xs31_o4c88bbob96z011d96","1"
"xs31_o4qab8b96z01x311d96","1"
"xs31_o4s3pmzo5t2qq1z01","1"
"xs31_o80u1jz01p5kll96zx11","1"
"xs31_o80u1mkkoz011w3460796","1"
"xs31_o80uh3z8l5q23zw12596","1"
"xs31_o8adhmkkozcc0f826","1"
"xs31_o8b9acz011ld1t52zx121","1"
"xs31_o8bb8bb8ozw9f0f9","1"
"xs31_o8ge9baiczc87079c","1"
"xs31_o8gwcc0si96zc8706953","1"
"xs31_oe1t6z8l5t0rrzw1","1"
"xs31_oe1t6zo55c4oz011dd","1"
"xs31_oe1t6zo81v0rrz011","1"
"xs31_og88baq3qicz6a871","1"
"xs31_ok46178cz6aab96z033","1"
"xs31_ok4o0o80uh3z6a870643","1"
"xs31_ok4o0oie0e96zx32qic","1"
"xs31_ok4o0ojd453zwcnga6","1"
"xs31_ok4o0u1v0brzx343w11","1"
"xs31_oo0o4k6p3qicz0c87011","1"
"xs31_oo0o8gu156zx3kcz0ca611","1"
"xs31_oo0u1lmzwcn0v074zy01","1"
"xs31_oo1v0s4gzx349e1d96","1"
"xs31_ra9lmzo5t2qrz01","1"
"xs31_rb88gzw178bq1raa4","1"
"xs31_w25960gz4a9d1d5lozx33","1"
"xs31_w39u0ooz0q6gncz3543","1"
"xs31_w69bqa4oz0g4q2qq1z121","1"
"xs31_w6a88r3ob96z65156w1","1"
"xs31_w6a8c1v0ciczcc0f9011","1"
"xs31_w9v0v1u0ooz6a87011","1"
"xs31_wbr0v1u066z6a87011","1"
"xs31_wc9jzca2s3qicz3543","1"
"xs31_wca2s0s2qrz355d221","1"
"xs31_wcc0v1oozcil9hzx3452","1"
"xs31_wciab96zmk46079a4z11","1"
"xs31_wdr0v1u066z6a87011","1"
"xs31_wgjl453z2lk2qrz343","1"
"xs31_wgjl453zgba8arz12311","1"
"xs31_wgw2596zkngf0311d96z1","1"
"xs31_wiu0e93zgh2u0bdz1221","1"
"xs31_wml9aczgbagf952z0121","1"
"xs31_wmllmggozgbaq226z11","1"
"xs31_wo4a96z25t0v1d96zx11","1"
"xs31_wo4c0ca952zo4kd1d96z01","1"
"xs31_x2llmz0o4ngma1z3543","1"
"xs31_x4a9b8b96z0gg0s453z3421","1"
"xs31_x4ap7ob96zg88ba4z123","1"
"xs31_x6996z025t1ticz3543","1"
"xs31_xbr0rhe0e96z4aa43","1"
"xs31_xc88b96zw2ll553zca43","1"
"xs31_xc970s2mz651156w116a4","1"
"xs31_xca2s0s453z695d9521","1"
"xs31_xca9b8bqicz6513033","1"
"xs31_xg6p2s0sia4zc87011643","1"
"xs31_xg84s0s2u06952z4a9611x1","1"
"xs31_xg8o653z6a8fgkcz2553","1"
"xs31_xgilmz8u1u2qq1z0123","1"
"xs31_xm2s0vhe0eicz4a611","1"
"xs31_xml1u0e952zo4kd221z01","1"
"xs31_xo4aabqicz69d5871","1"
"xs31_y069fgn96z0ggca53z321","1"
"xs31_y0g39u0oozxo5ldz69521","1"
"xs31_y0g88m952zokic321zw6953","1"
"xs31_y0ggoggm96zo4s3qia6z01","1"
