"apgcode","occurrences"
"xs35_2llmz122alk6gmiczy1343","9"
"xs35_69baa4oz0gill5oz346221","7"
"xs35_ml1egmiczhaaaa4z1156","4"
"xs35_xj9e0u156zxo5ldz69521","4"
"xs35_0oe1t6z06bo7ob96z311","3"
"xs35_8u1v0jjz01qb0v056zx11","3"
"xs35_069b8b96z0ml5lmz1210121","2"
"xs35_0g8owgil96z2fgv0vge2","2"
"xs35_0ggmlhe0e96z1qq2qic","2"
"xs35_35s1v0jjz255c3c543","2"
"xs35_35s2q4owggzc9303430fgp","2"
"xs35_3lm0u1u0ml3zw3430343","2"
"xs35_651u0u156z0o5lkldzw11","2"
"xs35_651u0u156z69d1c5lo","2"
"xs35_69b88c2u0ok8z69d11343","2"
"xs35_8e1t2s0ggz355dgf0dd","2"
"xs35_0178bbgz65132q98gzy3116ac","1"
"xs35_0354kljgzx3kk643zokc321","1"
"xs35_039u0u93z660v0v066zy01","1"
"xs35_069b8bb8b96z4a953033","1"
"xs35_08ehlmz2llk21zraaq1","1"
"xs35_0caab8f1ooz6997079c","1"
"xs35_0g8e1dmz345dhu1uic","1"
"xs35_0g8ehlmggz345diqaa43","1"
"xs35_0gg0s29v0rrzo5lc321z01","1"
"xs35_0ggm996z3460v1d96z06521","1"
"xs35_0ggx696z344r8bp5d96zy0121","1"
"xs35_0gs2t1e88gz12egld1dd","1"
"xs35_0ml1u0u1v0rrz3421x1","1"
"xs35_0mlhegehlmz3443x3443","1"
"xs35_0mlhegmicz3egf8hzx121","1"
"xs35_0o8g0gbb8b96zckgf03453","1"
"xs35_0okie0e96z4aaaaa4z6513","1"
"xs35_2lmgmmzhaq2qahz1210121","1"
"xs35_32qbaq4o0u156zx11w3453","1"
"xs35_354kl3zw32gv04aicggzy61243","1"
"xs35_39u0ehra97079cz321","1"
"xs35_3lk453z3kkjg0g8kicz01w123","1"
"xs35_3lkkljgz32qq2qa96","1"
"xs35_3lkmioz34iq2qaa4zw1221","1"
"xs35_3lmgmiozraaq2qic","1"
"xs35_3pmgmmggzg6q2qq221z11","1"
"xs35_4a96z651hj2aczw345d952","1"
"xs35_4a9baq4oz69970743033","1"
"xs35_660uhlmzml5ic01z110123","1"
"xs35_69b88a6z651jhlmzw32w23","1"
"xs35_69b88c0v1ooz69d11343","1"
"xs35_69b88c2qb96z69d11321","1"
"xs35_69b88c88b96zw69d1d96","1"
"xs35_69b8baq4oz6513x116952","1"
"xs35_69b8bb88c4ozw6511dd11","1"
"xs35_69b8bb88gzw2ll55lozx11","1"
"xs35_69b8bbgz25t1dlzw23032","1"
"xs35_69e0ehlmggkczwca26226","1"
"xs35_69ngbb8bpiczw6a871","1"
"xs35_6a88bb88c4oz69d1134311","1"
"xs35_6t1u0mmz1pgf0fgkc","1"
"xs35_8e1lmz330fgu3ob96","1"
"xs35_8e1v0v1acz178ngf2","1"
"xs35_c970si6zxciq2q4ozy33453","1"
"xs35_c9b8bb88a6z355d553","1"
"xs35_ca1v0s4oz35430345d96","1"
"xs35_ciab96zw11dd1u0oozy1643","1"
"xs35_cimge1v0s4oz066079cw1","1"
"xs35_cimgmkhv0rrzx6aa4","1"
"xs35_cimkim453zx6a87079a4","1"
"xs35_ciu0696zca22acz3113156","1"
"xs35_g6mgu1u06952zdlge21","1"
"xs35_g8o0u1f8brz123cj871","1"
"xs35_g8o0u1t6z123cj870796","1"
"xs35_gbb8b5z12pd1u069a4zx11","1"
"xs35_gbb8b96zdll553zw346","1"
"xs35_gg0g8o1fgkczdlgf0fio","1"
"xs35_ggwgs29f0f9zhaaaahz11w11","1"
"xs35_ml1u0ooz1qabgzw125aic","1"
"xs35_rb8b96z8lllla4z066","1"
"xs35_wmll2zgbaaarzo5l91z01","1"
"xs35_y38o653zw69b8bqz69d1132","1"
