"apgcode","occurrences"
"xs39_0bqikozraaaaa4z0qb953","12"
"xs39_651u0u156zcill45dzx346","3"
"xs39_651u0u156z08ljgldzx4aic","1"
"xs39_651u0u1lmzwj5s3qq1zw11","1"
"xs39_69baa4ozg88b9pz9f0fio","1"
"xs39_69e0ehu0mmzxg8ie0fgkczy01","1"
