"apgcode","occurrences"
"xs42_25a88bb8b96z4a511dd1d96","211"
"xs42_4a9b8f1c8a6z259d1f83156","19"
"xs42_g8ogill2zhaaaaahz12319ll8","5"
"xs42_4a9b8bb88a6z259d1dd1156","3"
"xs42_69b88bb88a6z69d11dd1156","1"
"xs42_gg0g88e1egozhaaarz110122ege13","1"
